999600200 = {
	name="Bharbae"
	culture = valyrian_dothraki
	
	
}
999600201 = {
	name="Drogaera"
	culture = valyrian_dothraki
	
	
}

999600202 = {
	name="Jhaquonis"
	culture = valyrian_dothraki
	
	
}
999600203 = {
	name="Temmoe"
	culture = valyrian_dothraki
	
	
}
999600204 = {
	name="Peono"
	culture = valyrian_dothraki
	
	
}
999600205 = {
	name="Jhaqo"
	culture = valyrian_dothraki
	
	
}
999600206 = {
	name="Zekkeon"
	culture = valyrian_dothraki
	
	
}
999600207 = {
	name="Mengorea"
	culture = valyrian_dothraki
	
	
}
999600208 = {
	name="Horrona"
	culture = valyrian_dothraki
	
	
}
999600209 = {
	name="Onqae"
	culture = valyrian_dothraki
	
	
}
999600210 = {
	name="Temamo"
	culture = valyrian_dothraki
	
	
}
999600211 = {
	name="Zirqeon"
	culture = valyrian_dothraki
	
	
}
999600212 = {
	name="Onqeon"
	culture = valyrian_dothraki
	
	
}
999600213 = {
	name="Durkio"
	culture = valyrian_dothraki
	
	
}
999600214 = {
	name="Haeg"
	culture = valyrian_dothraki
	
	
}
999600215 = {
	name="Kovarreon"
	culture = valyrian_dothraki
	
	
}
999600216 = {
	name="Marreo"
	culture = valyrian_dothraki
	
	
}
999600217 = {
	name="Raego"
	culture = valyrian_dothraki
	
	
}