#Hunter
character_event = {
	id = 200000
	desc = EVTDESC200000
	picture = GFX_evt_hunt
	
	is_triggered_only = yes
	min_age = 18
	prisoner = no
	capable_only = yes
	
	trigger = {
		OR = {
			is_playable = no
			NOT = { has_dlc = "Way of Life" }
		}
		OR = {
			is_female = no
			female_get_masculine_event_trigger = yes
		}
		NOT = { lifestyle_traits = 1 }
		martial = 8
		NOT = { trait = craven }
		NOT = { is_inaccessible_trigger = yes }
		can_press_claims_trigger = yes
		NOT = { has_severe_disability_trigger = yes }
		NOT = { pacifist = yes }
		NOT_mythical_creature_trigger = yes
	}
	
	weight_multiplier = {
		days = 1	
		modifier = {
			factor = 4.0
			has_ambition = obj_adopt_a_lifestyle
		}		
		modifier = {
			factor = 1.5
			has_education_martial_trigger = yes
		}	
		modifier = {
			factor = 1.5
			trait = brave
		}	
		modifier = {
			factor = 1.5
			trait = gregarious
		}
		modifier = {
			factor = 1.5
			trait = diligent
		}	
		modifier = {
			factor = 1.5
			is_strong_trigger = yes
		}
		modifier = {
			factor = 1.5
			is_agile_trigger = yes
		}
		modifier = {
			factor = 0.25
			trait = slothful
		}	
		modifier = {
			factor = 0.25
			trait = shy
		}	
		modifier = {
			factor = 0.25
			is_weak_trigger = yes
		}			
		modifier = {
			factor = 0.25
			is_lazy_trigger = yes
		}
		modifier = {
			factor = 1.5
			martial = 10
		}
		modifier = {
			factor = 1.5
			martial = 15
		}		
		modifier = {
			factor = 1.5
			martial = 20
		}	
	}
	
	option = {
		name = EVTOPTA200000
		add_trait = hunter
	}
}

#Falconer
character_event = {
	id = 200001
	desc = EVTDESC200001
	picture = GFX_evt_falconing
	
	is_triggered_only = yes
	min_age = 18
	prisoner = no
	capable_only = yes
	
	trigger = {
		OR = {
			is_playable = no
			NOT = { has_dlc = "Way of Life" }
			has_focus = focus_hunting
			has_focus = focus_carousing
		}
		NOT = { lifestyle_traits = 1 }
		diplomacy = 8
		NOT = { trait = shy }
		NOT = { is_inaccessible_trigger = yes }
		can_press_claims_trigger = yes
		NOT = { has_severe_disability_trigger = yes }
		NOT = { pacifist = yes }
		NOT_mythical_creature_trigger = yes
	}
	
	weight_multiplier = {
		days = 1	
		modifier = {
			factor = 4.0
			has_ambition = obj_adopt_a_lifestyle
		}
		modifier = {
			factor = 1.5
			trait = diligent
		}		
		modifier = {
			factor = 1.5
			trait = gregarious
		}		
		modifier = {
			factor = 0.25
			trait = slothful
		}
		modifier = {
			factor = 1.5
			diplomacy = 10
		}
		modifier = {
			factor = 1.5
			diplomacy = 15
		}		
		modifier = {
			factor = 1.5
			diplomacy = 20
		}
	}
	
	option = {
		name = EVTOPTA200001
		add_trait = falconer
	}
}

#Scholar
character_event = {
	id = 200002
	desc = EVTDESC200002
	picture = GFX_evt_monk

	is_triggered_only = yes
	min_age = 18
	prisoner = no
	capable_only = yes

	trigger = {
		OR = {
			is_playable = no
			NOT = { has_dlc = "Way of Life" }
		}
		NOT = { lifestyle_traits = 1 }
		can_use_book_trigger = yes
		NOT = { trait = gregarious }
		NOT = { is_inaccessible_trigger = yes }
		NOT_mythical_creature_trigger = yes
		NOT = { trait = slave }
		OR = {
			NOR = {
				culture_group = iron_isles_culture
				is_drowned_god_religion_trigger = yes
			}
			has_education_learning_trigger = yes
			trait = cynical			
		}
		NOR = {
			is_nomadic = yes
			is_tribal = yes
			government = wildling_feudal_government
		}
		NAND = {
			is_ruler = no
			liege = {
				OR = {
					is_nomadic = yes
					is_tribal = yes
					government = wildling_feudal_government
				}
			}
		}
	}
	

	weight_multiplier = {
		days = 1	
		modifier = {
			factor = 4.0
			has_ambition = obj_adopt_a_lifestyle
		}
		modifier = {
			factor = 2
			has_education_learning_trigger = yes
		}
		modifier = {
			factor = 0.25
			has_education_martial_trigger = yes
		}	
		modifier = {
			factor = 0.25
			is_allowed_to_loot = yes
		}		
		modifier = {
			factor = 1.5
			trait = diligent
		}
		modifier = {
			factor = 1.5
			is_smart_trigger = yes
		}	
		modifier = {
			factor = 1.5
			is_genius_trigger = yes
		}			
		modifier = {
			factor = 1.5
			trait = shy
		}	
		modifier = {
			factor = 0.25
			trait = slothful
		}		
		modifier = {
			factor = 1.5
			learning = 10
		}
		modifier = {
			factor = 1.5
			learning = 15
		}		
		modifier = {
			factor = 1.5
			learning = 20
		}
	}
	
	option = {
		name = EVTOPTA200002
		add_trait = scholar
	}
}

#Mystic
character_event = {
	id = 200003
	desc = EVTDESC200003
	picture = GFX_evt_comet

	is_triggered_only = yes
	min_age = 18
	prisoner = no
	capable_only = yes
	
	trigger = {
		OR = {
			is_playable = no
			NOT = { has_dlc = "Way of Life" }
		}
		NOT = { lifestyle_traits = 1 }
		intrigue = 8
		learning = 8
		NOT = { trait = honest }
		NOT = { is_inaccessible_trigger = yes }
		NOT = { trait = slave }
		NOT_mythical_creature_trigger = yes
	}
	
	weight_multiplier = {
		days = 1	
		modifier = {
			factor = 4.0
			has_ambition = obj_adopt_a_lifestyle
		}	
		modifier = {
			factor = 1.5
			has_education_learning_trigger	= yes
		}
		modifier = {
			factor = 1.5
			has_education_intrigue_trigger	= yes
		}	
		modifier = {
			factor = 0.5
			has_education_martial_trigger = yes
		}
		modifier = {
			factor = 1.5
			trait = lunatic
		}
		modifier = {
			factor = 1.5
			trait = diligent
		}
		modifier = {
			factor = 1.5
			trait = deceitful
		}			
		modifier = {
			factor = 1.5
			trait = paranoid
		}	
		modifier = {
			factor = 0.25
			trait = trusting
		}	
		modifier = {
			factor = 0.25
			trait = slothful
		}			
		modifier = {
			factor = 1.5
			intrigue = 10
		}
		modifier = {
			factor = 1.5
			intrigue = 15
		}		
		modifier = {
			factor = 1.5
			intrigue = 20
		}
	}
	
	option = {
		name = EVTOPTA200003
		add_trait = mystic
	}
}

#Impaler
character_event = {
	id = 200004
	desc = EVTDESC200004
	picture = GFX_evt_pale_rider
	
	is_triggered_only = yes
	min_age = 18
	prisoner = no
	capable_only = yes

	trigger = {
		OR = {
			is_playable = no
			NOT = { has_dlc = "Way of Life" }
		}
		OR = {
			trait = cruel
			trait = ruthless
			trait = lunatic
		}
		NOR = { 
			trait = kind
			trait = honorable
		}
		NOT = { lifestyle_traits = 1 }
		NOT = { is_inaccessible_trigger = yes }
		can_press_claims_trigger = yes
		NOT_mythical_creature_trigger = yes	
	}
	
	weight_multiplier = {
		days = 1	
		modifier = {
			factor = 4.0
			has_ambition = obj_adopt_a_lifestyle
		}
		modifier = {
			factor = 1.5
			trait = diligent
		}
		modifier = {
			factor = 1.5
			trait = cruel
		}	
		modifier = {
			factor = 1.5
			trait = wroth
		}
		modifier = {
			factor = 1.5
			trait = ruthless
		}
		modifier = {
			factor = 1.5
			trait = lunatic
		}
		modifier = {
			factor = 0.25
			trait = patient
		}
		modifier = {
			factor = 0.25
			trait = slothful
		}
	}

	option = {
		name = EVTOPTA200004
		add_trait = impaler
	}
}

#Gardener
character_event = {
	id = 200005
	desc = EVTDESC200005
	picture = GFX_evt_garden
	
	is_triggered_only = yes
	min_age = 18
	prisoner = no
	capable_only = yes

	trigger = {
		OR = {
			is_playable = no
			NOT = { has_dlc = "Way of Life" }
		}
		NOT = { lifestyle_traits = 1 }
		stewardship = 8
		NOT = { trait = wroth }
		NOT = { trait = greedy }
		NOT = { is_inaccessible_trigger = yes }
		can_press_claims_trigger = yes
		NOT = { has_severe_disability_trigger = yes }
		NOT_mythical_creature_trigger = yes
		OR = {
			NOR = {
				culture_group = iron_isles_culture
				is_drowned_god_religion_trigger = yes
			}
			trait = cynical			
		}
		NOR = {
			is_nomadic = yes
			is_tribal = yes
			government = wildling_feudal_government
		}
		NAND = {
			is_ruler = no
			liege = {
				OR = {
					is_nomadic = yes
					is_tribal = yes
					government = wildling_feudal_government
				}
			}
		}
	}
	
	weight_multiplier = {
		days = 1	
		modifier = {
			factor = 4.0
			has_ambition = obj_adopt_a_lifestyle
		}
		modifier = {
			factor = 1.5
			has_education_stewardship_trigger = yes
		}
		modifier = {
			factor = 0.5
			has_education_martial_trigger = yes
		}
		modifier = {
			factor = 1.5
			trait = diligent
		}
		modifier = {
			factor = 1.5
			trait = patient
		}	
		modifier = {
			factor = 1.5
			trait = temperate
		}	
		modifier = {
			factor = 1.5
			trait = content
		}
		modifier = {
			factor = 0.25
			trait = slothful
		}	
		modifier = {
			factor = 0.25
			trait = ambitious
		}			
		modifier = {
			factor = 1.5
			stewardship = 10
		}
		modifier = {
			factor = 1.5
			stewardship = 15
		}		
		modifier = {
			factor = 1.5
			stewardship = 20
		}
	}
	
	option = {
		name = EVTOPTA200005
		add_trait = gardener
	}
}

#Poet
character_event = {
	id = 200006
	desc = EVTDESC200006
	picture = GFX_evt_library
	
	is_triggered_only = yes
	min_age = 18
	prisoner = no
	capable_only = yes

	trigger = {
		OR = {
			is_playable = no
			NOT = { has_dlc = "Way of Life" }
			has_character_modifier = has_written_poem
		}
		NOT = { lifestyle_traits = 1 }
		can_use_book_trigger = yes
		NOT = { trait = cruel }
		NOT = { is_inaccessible_trigger = yes }
		NOT_mythical_creature_trigger = yes
		NOT = { trait = slave }
		NOR = {
			is_nomadic = yes
			is_tribal = yes
			government = wildling_feudal_government
		}
		NAND = {
			is_ruler = no
			liege = {
				OR = {
					is_nomadic = yes
					is_tribal = yes
					government = wildling_feudal_government
				}
			}
		}
	}
	
	weight_multiplier = {
		days = 1	
		modifier = {
			factor = 4.0
			has_ambition = obj_adopt_a_lifestyle
		}
		modifier = {
			factor = 1.5
			trait = diligent
		}
		modifier = {
			factor = 1.5
			trait = kind
		}	
		modifier = {
			factor = 1.5
			trait = charitable
		}	
		modifier = {
			factor = 1.5
			trait = gregarious
		}	
		modifier = {
			factor = 0.25
			trait = shy
		}		
		modifier = {
			factor = 0.25
			trait = greedy
		}	
		modifier = {
			factor = 0.25
			trait = slothful
		}	
	}
	
	option = {
		name = EVTOPTA200006
		add_trait = poet
	}
}

#Celibate
character_event = {
	id = 200007
	desc = EVTDESC200007
	picture = GFX_evt_heretic
	
	is_triggered_only = yes
	min_age = 18
	prisoner = no
	capable_only = yes

	trigger = {
		OR = {
			is_playable = no
			NOT = { has_dlc = "Way of Life" }
		}
		NOT = { lifestyle_traits = 1 }
		trait = chaste
		OR = {
			trait = temperate
			trait = shy	
			trait = content	
			trait = zealous
		}
		NOT = { trait = lustful }
		has_lover = no
		
		NOT = { is_inaccessible_trigger = yes }
		NOT_mythical_creature_trigger = yes	
	}
	
	weight_multiplier = {
		days = 1	
		modifier = {
			factor = 4.0
			has_ambition = obj_adopt_a_lifestyle
		}
		modifier = {
			factor = 4.0
			can_press_claims_trigger = no
		}
		modifier = {
			factor = 1.5
			trait = temperate
		}	
		modifier = {
			factor = 1.5
			trait = shy
		}
		modifier = {
			factor = 1.5
			trait = content
		}
		modifier = {
			factor = 1.5
			trait = zealous
		}
		modifier = {
			factor = 0.15
			NOT = { age = 40 }
			NOT = { num_of_children = 1 }
			OR = {
				is_ruler = yes
				any_heir_title = { always = yes }
			}
			can_press_claims_trigger = yes
		}
		modifier = {
			factor = 0.25
			trait = ambitious
		}
		modifier = {
			factor = 0.25
			trait = hedonist
		}
		modifier = {
			factor = 0.25
			trait = gluttonous
		}
		modifier = {
			factor = 0.25
			trait = cynical
		}
	}	
	
	option = {
		name = EVTOPTA200007
		add_trait = celibate
	}		
}

#Hedonist
character_event = {
	id = 200008
	desc = EVTDESC200008
	picture = GFX_evt_brothel
	
	is_triggered_only = yes
	min_age = 18
	prisoner = no
	capable_only = yes

	trigger = {
		OR = {
			is_playable = no
			NOT = { has_dlc = "Way of Life" }
		}
		NOT = { lifestyle_traits = 1 }
		OR = {
			trait = lustful
			trait = drunkard
			trait = gluttonous
		}
		NOR = {
			trait = temperate
			trait = chaste
		}
		NOT = { is_inaccessible_trigger = yes }
		NOT_mythical_creature_trigger = yes
		NOT = { trait = slave }
	}
	
	weight_multiplier = {
		days = 1	
		modifier = {
			factor = 4.0
			has_ambition = obj_adopt_a_lifestyle
		}
		modifier = {
			factor = 1.5
			trait = lustful
		}	
		modifier = {
			factor = 1.5
			trait = drunkard
		}	
		modifier = {
			factor = 1.5
			trait = gluttonous
		}
	}	
	
	option = {
		name = EVTOPTA200008
		add_trait = hedonist
	}		
}

#Duelist
character_event = {
	id = 200009
	desc = EVTDESC200009
	picture = GFX_evt_joust
	
	is_triggered_only = yes
	min_age = 18
	prisoner = no
	capable_only = yes

	trigger = {
		OR = {
			is_playable = no
			NOT = { has_dlc = "Way of Life" }
		}
		OR = {
			is_female = no
			female_get_masculine_event_trigger = yes		
		}
		NOT = { lifestyle_traits = 1 }
		combat_rating = 40
		NOT = { trait = craven }
		NOT = { is_inaccessible_trigger = yes }
		can_press_claims_trigger = yes
		NOT = { has_severe_disability_trigger = yes }
		NOT = { pacifist = yes }
		NOT_mythical_creature_trigger = yes
	}
	
	weight_multiplier = {
		days = 1	
		modifier = {
			factor = 4.0
			has_ambition = obj_adopt_a_lifestyle
		}		
		modifier = {
			factor = 1.5
			has_education_martial_trigger = yes
		}	
		
		modifier = {
			factor = 1.5
			trait = diligent
		}
		modifier = {
			factor = 1.5
			trait = wroth
		}	
		modifier = {
			factor = 1.5
			trait = brave
		}	
		modifier = {
			factor = 0.25
			trait = patient
		}	
		modifier = {
			factor = 0.25
			trait = slothful
		}	
		modifier = {
			factor = 1.5
			combat_rating = 60
		}
		modifier = {
			factor = 1.5
			combat_rating = 75
		}		
		modifier = {
			factor = 1.5
			combat_rating = 90
		}
	}	

	option = {
		name = EVTOPTA200009
		add_trait = duelist
	}
}

########################################################################################
#Hunter/Falconer - Start
########################################################################################
character_event = {
	id = 5040
	desc = EVTDESC5040
	picture = GFX_evt_hunt	
	
	is_triggered_only = yes
	min_age = 16
	only_playable = yes
	prisoner = no
	capable_only = yes
	in_command = no
	
	trigger = {
		OR = {
			NOT = { has_dlc = "Way of Life" }
			has_focus = focus_hunting
		}	
		OR = {
			is_female = no
			female_get_masculine_event_trigger = yes
			has_focus = focus_hunting
		}
		NOT = { lifestyle_traits = 1 }
	
		NOT = { is_inaccessible_trigger = yes }
		can_press_claims_trigger = yes
		NOT = { has_severe_disability_trigger = yes }
		NOT = { pacifist = yes }
		NOT_mythical_creature_trigger = yes
	}
	
	weight_multiplier = {
		factor = 1
		
		modifier = {
			factor = 4.0
			has_ambition = obj_adopt_a_lifestyle
		}		
		modifier = {
			factor = 1.5
			has_education_martial_trigger = yes
		}	
		modifier = {
			factor = 1.5
			trait = brave
		}	
		modifier = {
			factor = 1.5
			trait = gregarious
		}
		modifier = {
			factor = 1.5
			trait = diligent
		}
		modifier = {
			factor = 1.5
			is_agile_trigger = yes
		}		
		modifier = {
			factor = 1.5
			is_strong_trigger = yes
		}
		modifier = {
			factor = 0.25
			trait = slothful
		}	
		modifier = {
			factor = 0.25
			trait = shy
		}	
		modifier = {
			factor = 0.25
			is_weak_trigger = yes
		}			
		modifier = {
			factor = 0.25
			is_lazy_trigger = yes
		}
		modifier = {
			factor = 1.5
			martial = 10
		}
		modifier = {
			factor = 1.5
			martial = 15
		}		
		modifier = {
			factor = 1.5
			martial = 20
		}
	}
	
	option = {
		name = EVTOPTA5040 #Hunting
		random_list = {
			50 = {
				character_event = {
					id = 5041
					days = 14
					tooltip = EVTTOOLTIP5041
				}
			}
			50 = {
				character_event = {
					id = 5042
					days = 14
					tooltip = EVTTOOLTIP5042
				}
			}
		}
	}
	
	option = {
		name = EVTOPTB5040 #Falconry
		random_list = {
			50 = {
				character_event = {
					id = 5043 
					days = 14
					tooltip = EVTTOOLTIP5043
				}
			}
			50 = {
				character_event = {
					id = 5044
					days = 14
					tooltip = EVTTOOLTIP5044
				}
			}
		}			
	}
	
	option = {
		name = EVTOPTC5040
		if = {
			limit = {
				trait = stressed
				NOT = { trait = depressed }
			}
			random = {
				chance = 5
				add_trait = depressed
				character_event = { id = 38188 }
			}
		}
		else = {
			random = {
				chance = 10
				add_trait = stressed
				character_event = { id = 38182 }
			}
		}
	}
}

#Hunting - no fun
character_event = {
	id = 5041
	desc = EVTDESC5041
	picture = GFX_evt_hunt	
	
	is_triggered_only = yes
	prisoner = no
	capable_only = yes

	trigger = {
		NOT = { lifestyle_traits = 1 }
	
		NOT = { is_inaccessible_trigger = yes }
		can_press_claims_trigger = yes
		NOT = { has_severe_disability_trigger = yes }
		NOT = { pacifist = yes }
		NOT_mythical_creature_trigger = yes
	}

	option = {
		name = EVTOPTA5041 #Forget it
		if = {
			limit = {
				trait = stressed
				NOT = { trait = depressed }
			}
			random = {
				chance = 10
				add_trait = depressed
				character_event = { id = 38188 }
			}
		}
		else = {
			random = {
				chance = 20
				add_trait = stressed
				character_event = { id = 38182 }
			}
		}
		clr_character_flag = tried_hunting_or_falconery
	}
	
	option = {
		name = EVTOPTB5041 #Try something else
		trigger = { NOT = { has_character_flag = tried_hunting_or_falconery } }
		set_character_flag = tried_hunting_or_falconery
		random_list = {
			50 = {
				character_event = {
					id = 5043 
					days = 14
					tooltip = EVTTOOLTIP5043
				}
			}
			50 = {
				character_event = {
					id = 5044
					days = 14
					tooltip = EVTTOOLTIP5044
				}
			}
		}
	}
}

#Hunting - Really fun!
character_event = {
	id = 5042
	desc = EVTDESC5042
	picture = GFX_evt_hunt
	
	is_triggered_only = yes	
	
	option = {
		name = EVTOPTA5042
		add_character_modifier = {
			name = aspiring_hunter
			duration = 90
		}
		character_event = { id = 5045 days = 50 random = 39 }
	}
}

#Falconry - no fun
character_event = {
	id = 5043
	desc = EVTDESC5043
	picture = GFX_evt_falconing	
	
	is_triggered_only = yes

	option = {
		name = EVTOPTA5043 #Forget it
		if = {
			limit = {
				trait = stressed
				NOT = { trait = depressed }
			}
			random = {
				chance = 10
				add_trait = depressed
				character_event = { id = 38188 }
			}
		}
		else = {
			random = {
				chance = 20
				add_trait = stressed
				character_event = { id = 38182 }
			}
		}
		clr_character_flag = tried_hunting_or_falconery
	}
	
	option = {
		name = EVTOPTB5043 #Try something else
		trigger = { NOT = { has_character_flag = tried_hunting_or_falconery } }
		set_character_flag = tried_hunting_or_falconery
		random_list = {
			50 = {
				character_event = {
					id = 5041
					days = 14
					tooltip = EVTTOOLTIP5041
				}
			}
			50 = {
				character_event = {
					id = 5042
					days = 14
					tooltip = EVTTOOLTIP5042
				}
			}
		}
	}
}

#Falconry - Really fun!
character_event = {
	id = 5044
	desc = EVTDESC5044
	picture = GFX_evt_falconing	
	
	is_triggered_only = yes
	
	option = {
		name = EVTOPTA5044
		add_character_modifier = {
			name = aspiring_falconer
			duration = -1
		}
		character_event = { id = 5046 days = 50 random = 39 }
	}
}

#Hunter
character_event = {
	id = 5045
	desc = EVTDESC5045
	picture = GFX_evt_hunt
	
	is_triggered_only = yes
	prisoner = no
	capable_only = yes
	lacks_dlc = "Way of Life"
	
	trigger = {
		has_character_modifier = aspiring_hunter
		NOT = { lifestyle_traits = 1 }
		NOT = { is_inaccessible_trigger = yes }
		can_press_claims_trigger = yes
		NOT = { has_severe_disability_trigger = yes }
		NOT = { pacifist = yes }
		NOT_mythical_creature_trigger = yes
	}
	
	immediate = {
		remove_character_modifier = aspiring_hunter
	}
	
	option = {
		name = EVTOPTA5045
		add_trait = hunter
	}
	
	option = {
		name = EVTOPTB5045 #Booring
		prestige = 15
	}
}

#Falconer
character_event = {
	id = 5046
	desc = EVTDESC5046
	picture = GFX_evt_falconing
	
	is_triggered_only = yes
	prisoner = no
	capable_only = yes
	#lacks_dlc = "Way of Life"
	
	trigger = {
		has_character_modifier = aspiring_falconer
		NOT = { lifestyle_traits = 1 }
		NOT = { is_inaccessible_trigger = yes }
		can_press_claims_trigger = yes
		NOT = { has_severe_disability_trigger = yes }
		NOT = { pacifist = yes }
		NOT_mythical_creature_trigger = yes
	}
	
	immediate = {
		remove_character_modifier = aspiring_falconer
	}
	
	option = {
		name = EVTOPTA5046
		add_trait = falconer
	}
	
	option = {
		name = EVTOPTB5046 #Booring
		prestige = 15
	}
}
########################################################################################
#Celibate/Hedonist - Start
########################################################################################
character_event = {
	id = 5060
	desc = EVTDESC5060
	picture = GFX_evt_brothel
	
	is_triggered_only = yes
	min_age = 18
	only_playable = yes
	prisoner = no
	capable_only = yes
	lacks_dlc = "Way of Life"
	
	trigger = {
		NOT = { lifestyle_traits = 1 }	
		NOT = { is_inaccessible_trigger = yes }
		NOT_mythical_creature_trigger = yes
	}

	weight_multiplier = {
		factor = 1
	
		modifier = {
			factor = 4.0
			has_ambition = obj_adopt_a_lifestyle
		}
		modifier = {
			factor = 0.25
			has_education_martial_trigger = yes
		}	
	}
	
	option = {
		name = EVTOPTA5060
		trigger = {
			NOR = {
				trait = temperate
				trait = chaste
			}
		}
		ai_chance = {
			factor = 25
			modifier = {
				factor = 5
				trait = lustful
			}	
			modifier = {
				factor = 5
				trait = drunkard
			}	
			modifier = {
				factor = 5
				trait = gluttonous
			}
		}
		add_character_modifier = {
			name = one_hedonist
			duration = 365
		}
		character_event = { id = 5061 days = 50 random = 39 }
	}
	option = {
		name = EVTOPTB5060
		trigger = {
			NOT = { trait = lustful }
			has_lover = no
		}
		ai_chance = {
			factor = 25
			modifier = {
				factor = 5
				trait = chaste
			}
			modifier = {
				factor = 3
				can_press_claims_trigger = no
			}
			modifier = {
				factor = 1.5
				trait = temperate
			}	
			modifier = {
				factor = 1.5
				trait = shy
			}
			modifier = {
				factor = 1.5
				trait = content
			}
			modifier = {
				factor = 0.15
				NOT = { age = 40 }
				NOT = { num_of_children = 1 }
				OR = {
					is_ruler = yes
					any_heir_title = { always = yes }
				}
				can_press_claims_trigger = yes
			}
			modifier = {
				factor = 0.25
				trait = ambitious
			}
			modifier = {
				factor = 0.25
				trait = hedonist
			}
			modifier = {
				factor = 0.25
				trait = gluttonous
			}
			modifier = {
				factor = 0.25
				trait = cynical
			}
		}
		add_character_modifier = {
			name = one_celibate
			duration = 365
		}
		character_event = { id = 5062 days = 50 random = 39 }
	}
	option = {
		name = EVTOPTC5060
		ai_chance = {
			factor = 50
		}
		if = {
			limit = {
				trait = stressed
				NOT = { trait = depressed }
			}
			random = {
				chance = 5
				add_trait = depressed
				character_event = { id = 38188 }
			}
		}
		else = {
			random = {
				chance = 10
				add_trait = stressed
				character_event = { id = 38182 }
			}
		}
	}	
}

#On the road towards Hedonism
character_event = {
	id = 5061
	desc = EVTDESC5061
	picture = GFX_evt_brothel
	
	is_triggered_only = yes
	prisoner = no
	capable_only = yes

	trigger = {
		NOT = { lifestyle_traits = 1 }
	
		NOR = {
			trait = temperate
			trait = chaste
		}
		NOT = { is_inaccessible_trigger = yes }
		NOT_mythical_creature_trigger = yes
	}

	option = {
		name = EVTOPTA5061
		remove_character_modifier = one_hedonist
		add_character_modifier = {
			name = sweet_temptation
			duration = 365
		}
		character_event = { id = 5063 days = 50 random = 39 }
	}
	option = {
		name = EVTOPTB5061
		remove_character_modifier = one_hedonist
		add_character_modifier = {
			name = stay_strong
			duration = 365
		}
		character_event = { id = 5064 days = 50 random = 39 }
	}
}

#On the road towards Celibacy
character_event = {
	id = 5062
	desc = EVTDESC5062
	picture = GFX_evt_heretic
	
	is_triggered_only = yes
	prisoner = no
	capable_only = yes

	trigger = {
		NOT = { lifestyle_traits = 1 }
	
		NOT = { trait = lustful }
		has_lover = no
		NOT = { is_inaccessible_trigger = yes }
		NOT_mythical_creature_trigger = yes
	}

	option = {
		name = EVTOPTA5062
		remove_character_modifier = one_celibate
		add_character_modifier = {
			name = sweet_temptation
			duration = 365
		}
		character_event = { id = 5063 days = 50 random = 39 }
	}
	option = {
		name = EVTOPTB5062
		remove_character_modifier = one_celibate
		add_character_modifier = {
			name = stay_strong
			duration = 365
		}
		character_event = { id = 5064 days = 50 random = 39 }
	}
}

#Sweet Temptation
character_event = {
	id = 5063
	desc = EVTDESC5063
	picture = GFX_evt_brothel
	
	is_triggered_only = yes
	prisoner = no
	capable_only = yes

	trigger = {
		NOT = { lifestyle_traits = 1 }
		NOT = { is_inaccessible_trigger = yes }
		NOT_mythical_creature_trigger = yes
	}
	
	option = {
		name = EVTOPTA5063
		character_event = {
			id = 5065
			days = 30
			tooltip = EVTTOOLTIP5065
		}
	}
	
	option = {
		name = EVTOPTB5063
		character_event = {
			id = 5066
			days = 30
			tooltip = EVTTOOLTIP5066
		}
	}
}

#Stay Strong
character_event = {
	id = 5064
	desc = EVTDESC5064
	picture = GFX_evt_heretic
	
	is_triggered_only = yes
	prisoner = no
	capable_only = yes

	trigger = {
		NOT = { lifestyle_traits = 1 }
		NOT = { is_inaccessible_trigger = yes }
		NOT_mythical_creature_trigger = yes
	}
	
	option = {
		name = EVTOPTA5064
		piety = 10
		character_event = {
			id = 5065
			days = 30
			tooltip = EVTTOOLTIP5065
		}
	}
	
	option = {
		name = EVTOPTB5064
		prestige = 10
		character_event = {
			id = 5066
			days = 30
			tooltip = EVTTOOLTIP5066
		}
	}
}

#Celibacy!
character_event = {
	id = 5065
	desc = EVTDESC5065
	picture = GFX_evt_heretic
	
	is_triggered_only = yes
	prisoner = no
	capable_only = yes

	trigger = {
		NOT = { lifestyle_traits = 1 }
	
		NOT = { trait = lustful }
		has_lover = no
		NOT = { is_inaccessible_trigger = yes }
		NOT_mythical_creature_trigger = yes
	}
	
	immediate = {
		remove_character_modifier = sweet_temptation
		remove_character_modifier = stay_strong
	}
	
	option = {
		name = EVTOPTA5065
		add_trait = celibate
	}
	option = {
		name = EVTOPTB5065
		prestige = 20
	}		
}

#Hedonism!
character_event = {
	id = 5066
	desc = EVTDESC5066
	picture = GFX_evt_brothel
	
	is_triggered_only = yes
	prisoner = no
	capable_only = yes

	trigger = {
		NOT = { lifestyle_traits = 1 }
	
		NOR = {
			trait = temperate
			trait = chaste
		}
		NOT = { is_inaccessible_trigger = yes }
		NOT_mythical_creature_trigger = yes
	}
	
	immediate = {
		remove_character_modifier = sweet_temptation
		remove_character_modifier = stay_strong
	}
	
	option = {
		name = EVTOPTA5066
		add_trait = hedonist
	}
	option = {
		name = EVTOPTB5066
		piety = 20
	}		
}
