namespace = NE

# Notification event for invited character
character_event = {
	id = NE.1
	picture = GFX_evt_emissary

	is_triggered_only = yes
	
	portrait = event_target:invited_character

	desc = {
		text = EVTDESC_NE_1_debutant
		trigger = { event_target:invited_character = { has_character_flag = debutante } }
	}
	desc = {
		text = EVTDESC_NE_1 #Not debutantes
		trigger = { event_target:invited_character = { NOT = { has_character_flag = debutante } } }
	}

	
	option = {
		name = EVTOPTA_NE_1
		
		trigger = {
			event_target:invited_character = { has_character_flag = invited_soldier }
			OR = {
				AND = {
					tier = COUNT
					NOT = { has_assigned_minor_title = { title = title_commander count = 2 } }
				}
				AND = {
					tier = DUKE
					NOT = { has_assigned_minor_title = { title = title_commander count = 4 } }
				}
				AND = {
					tier = KING
					is_nomadic = no
					NOT = { has_assigned_minor_title = { title = title_commander count = 6 } }
				}
				AND = {
					tier = EMPEROR
					is_nomadic = no
					NOT = { has_assigned_minor_title = { title = title_commander count = 8 } }
				}
				AND = {
					tier = KING
					is_nomadic = yes
					NOT = { has_assigned_minor_title = { title = title_commander count = 2 } }
				}
				AND = {
					tier = EMPEROR
					is_nomadic = yes
					NOT = { has_assigned_minor_title = { title = title_commander count = 4 } }
				}
			}
		}
		
		event_target:invited_character = {
			move_character = ROOT
			give_minor_title = title_commander
		}
	}
	
	option = {
		name = EXCELLENT
		event_target:invited_character = { move_character = ROOT tooltip = { show_portrait = yes } }
	}
	
	option = {
		name = EVTOPTB_NE_1
		trigger = { ai = no }
		hidden_tooltip = {
			event_target:invited_character = { 
				any_artifact = { destroy_artifact = yes }
				if = { #clear special hedge dynasty
					limit = { has_dynasty_flag = hedge_dynasty_occupied }
					clr_dynasty_flag = hedge_dynasty_occupied
					dynasty = none
				}
				death = {
					death_reason = death_missing
				}
			}
		}
	}
}