shattered_world_county_conquest = {
	name = CB_NAME_SHATTERED_COUNTY_CONQUEST
	war_name = WAR_NAME_SHATTERED_COUNTY_CONQUEST
	sprite = 27
	truce_days = 1825
	hostile_against_others = yes
	full_hostility = yes
	is_permanent = yes
	check_all_titles = yes # if permanent, setting this to true will check against all of someones titles, including vassal held titles
	can_ask_to_join_war = no
	allowed_to_target_tributaries = no
	
	infamy_modifier = 0
	
	sort_priority = 795
	
	can_use_gui = {
		trigger_if = {
			limit = {
				free_city_pre_doom_conquest_CB_trigger = no
			}
			conditional_tooltip = {
				trigger = {
					has_alternate_start_setting = {
						setting = shattered_cbs
						option = on_limited
					}
				}
				NOT = {
					total_years_played = 25
				}
			}
			conditional_tooltip = {
				trigger = {
					has_alternate_start_setting = {
						setting = shattered_cbs
						option = on_long
					}
				}
				NOT = {
					total_years_played = 100
				}
			}
		}	
	}
	
	on_add_title = {
		hidden_tooltip = { 
			FROM = { 
				if = {
					limit = {
						OR = {
							is_theocracy = yes
							is_republic = yes
							PREV = { higher_tier_than = DUKE } #kingdom claim wars
							AND = { #This is a war for one of my primary titles
								tier = PREV
								NOT = { higher_tier_than = ROOT }
							}
						}
					}
					character_event = { id = diplomatic.3099 } #call for aid?
				}	
			} 
		} 
		e_rebels = {
			persistent_event_target:chronicle_player = {
				if = {
					limit = { character = ROOT }
					chronicle = {
						entry = CHRONICLE_WAR_INVASION_ATTACKER
						portrait = [From.GetID]
					}
					break = yes
				}
				if = {
					limit = { character = FROM }
					chronicle = {
						entry = CHRONICLE_WAR_INVASION_DEFENDER
						portrait = [Root.GetID]
					}
					break = yes
				}
				if = {
					limit = { is_liege_or_above = ROOT }
					chronicle = {
						entry = CHRONICLE_WAR_INVASION_ATTACKER_LIEGE
						portrait = [Root.GetID]
					}
					break = yes
				}
				if = {
					limit = { is_liege_or_above = FROM }
					chronicle = {
						entry = CHRONICLE_WAR_INVASION_DEFENDER_LIEGE
						portrait = [From.GetID]
					}
				}
			}
		}	
	}
	
	can_use = {
		#Valyrian Free City region colonies can use this freely
		trigger_if = {
			limit = {
				free_city_pre_doom_conquest_CB_trigger = yes
			}
			always = yes
		}
		trigger_else = {
			is_shattered_world = yes
			NOT = {
				has_alternate_start_setting = {
					setting = shattered_cbs
					option = off
				}
			}
			conditional_tooltip = {
				trigger = {
					has_alternate_start_setting = {
						setting = shattered_cbs
						option = on_limited
					}
				}
				NOT = {
					total_years_played = 25
				}
			}
			conditional_tooltip = {
				trigger = {
					has_alternate_start_setting = {
						setting = shattered_cbs
						option = on_long
					}
				}
				NOT = {
					total_years_played = 100
				}
			}
		}	
		ROOT = {
			NOT = { is_liege_or_above = FROM }
			mercenary = no
		}
	}

	can_use_title = {
		universal_cb_restrictions_trigger = yes
		universal_cb_title_restrictions_trigger = yes
		#Valyrian Free City CB only in designated regions
		trigger_if = {
			limit = {
				free_city_pre_doom_conquest_CB_trigger = yes
			}
			location = {
				region = world_free_cities
				NOT = { region = world_braavos }
				NOT = { region = world_andalos }
				NAND = {
					owner = { culture = rhoynar }
					kingdom = { title = k_rhoynar }
				}	
			}
		}
		tier = count
		OR = {
			FROM = {
				has_landed_title = PREV
			}
			holder_scope = {
				is_liege_or_above = FROM
				NOT = { same_realm = ROOT }
			}
		}

		NOR = {
			ROOT = {
				has_landed_title = PREV
			}
			holder_scope = {
				is_liege_or_above = ROOT
			}
		}
		
		location = {
			#any_neighbor_province = {
			#	owner = {
			#		OR = {
			#			character = ROOT
			#			is_liege_or_above = ROOT
			#		}
			#	}
			#}
			any_neighbor_province = {
				OR = {
					AND = {
						has_owner = yes
						owner = {
							OR = {
								character = ROOT
								is_liege_or_above = ROOT
							}
						}
					}
					AND = {
						is_land = no
						any_neighbor_province = {
							OR = {
								AND = {
									has_owner = yes
									owner = {
										OR = {
											character = ROOT
											is_liege_or_above = ROOT
										}
									}
								}
							}
						}
					}
				}
			}
		}
	}

	is_valid_title = {
		universal_cb_valid_restrictions_trigger = yes
		OR = {
			FROM = {
				has_landed_title = PREV
			}
			holder_scope = {
				is_liege_or_above = FROM
			}
		}
		NAND = { #Cannot be used to take nomadic territory
			tier = COUNT
			location = { 
				NOT = { 
					any_province_holding = {
						holder_scope = { NOT = { culture_group = unoccupied_group } }
						OR = {
							holding_type = castle
							holding_type = city
						}
					}
				}
			}	
		}
	}

	on_success_title = {
		hidden_tooltip = { 
			holder_scope = { save_event_target_as = old_usurped_title_holder }
			ROOT = { 
				add_character_modifier = { name = victory_timer duration = 3 } 				
			} 
		} 
		hidden_tooltip = { 
			holder_scope = { character_event = { id = maintenance.22 days = 2 } }#Mega War flag maintenance
			mega_war_rebel_leader_resolution_effect = yes
		}	
		if = {
			limit = {
				holder_scope = {
					tier = count
					NOT = { num_of_count_titles = 2 }
					lower_tier_than = ROOT
				}
			}

			holder_scope = {
				set_defacto_liege = ROOT
				character_event = { id = maintenance.25 } #Subjugation flag maintenance
			}
		}

		if = {
			limit = {
				holder_scope = {
					OR = {
						higher_tier_than = count
						num_of_count_titles = 2
						NOT = { lower_tier_than = ROOT }
					}
				}
			}

			usurp_title_plus_barony_if_unlanded = { target = ROOT type = invasion }
			any_de_jure_vassal_title = { # take all baronies under the one we're fighting for
				limit = {
					has_holder = yes
					NOT = {
						de_facto_liege = PREV
					}
					holder_scope = {
						is_liege_or_above = FROM
					}
				}

				usurp_title_plus_barony_if_unlanded = { target = ROOT type = invasion }
			}
		}
		
		add_pressed_claim = FROM
		
		ROOT = {
			participation_scaled_prestige = 100
		}
		any_attacker = {
			limit = { NOT = { character = ROOT } }
			hidden_tooltip = { participation_scaled_prestige = 100 }
		}		
		FROM = {
			prestige = -100
		}		
		
		hidden_tooltip = {
			ROOT = {			
				character_event = { id = maintenance.26 } #Vanilla bug resets laws, so fix empire tracker law and primogeniture
				character_event = { id = maintenance.21 } #Take dejure vassals (AGOT)
			}
		}
	}

	on_fail_title = {
		ROOT = {
			prestige = -100
		}
		FROM = {
			participation_scaled_prestige = 100
		}
		any_defender = {
			limit = { NOT = { character = FROM } }
			hidden_tooltip = { participation_scaled_prestige = 100 }
		}
	}

	on_reverse_demand = {
		hidden_tooltip = { FROM = { add_character_modifier = { name = victory_timer duration = 3 } } }
		ROOT = {
			prestige = -150
			if = {
				limit = { 
					lower_tier_than = FROM
					has_opinion_modifier = { who = FROM modifier = opinion_de_facto_liege }
				}
				imprison = FROM
			}
			if = {
				limit = { 
					OR = {
						NOT = { lower_tier_than = FROM }
						NOT = { has_opinion_modifier = { who = FROM modifier = opinion_de_facto_liege } }
					}
				}
				transfer_scaled_wealth = {
					to = FROM
					value = 4.0
				}
			}
		}
		FROM = {
			character_event = { id = maintenance.2199 tooltip = TOOLTIPmaintenance.2199 } #Take back dejure vassals (AGOT)
			participation_scaled_prestige = 150			
		}
		any_defender = {
			limit = { NOT = { character = FROM } }
			hidden_tooltip = { participation_scaled_prestige = 150 }
		}
		hidden_tooltip = {
			mega_war_emperor_rebels_resolution_effect = yes
		}
	}
	
	attacker_ai_victory_worth = {
		factor = -1 # always accept
	}
	
	attacker_ai_defeat_worth = {
		factor = 100
	}

	defender_ai_victory_worth = {
		factor = -1 # always accept
	}
	
	defender_ai_defeat_worth = {
		factor = 100
	}
	
	ai_will_do = { 
		factor = 1
		#Dragon intimidation
		modifier = {
			factor = 0
			ROOT = { 
				NOT = { can_use_dragon_abilities_trigger = yes } 
				NOT = { relative_power = { who = FROM power = 6 } }	
			}
			FROM = { 
				can_use_dragon_abilities_trigger = yes 
				OR = {
					any_friend = { trait = dragon martial = 60 }
					AND = {  graphical_culture = dragongfx martial = 60 }
				}
				is_incapable = no
			}
		}
		modifier = {
			factor = 0.1
			ROOT = {
				independent = no
				same_liege = FROM
			}
		}
	}
}

#shattered_world_duchy_conquest = {
#	name = CB_NAME_SHATTERED_DUCHY_CONQUEST
#	war_name = WAR_NAME_SHATTERED_DUCHY_CONQUEST
#	sprite = 8
#	truce_days = 3650
#	is_permanent = yes
#	check_de_jure_tier = DUKE # this scans all dejure duchies for the counties which are held by or vassals(or below) of selected character. Only valid if is_permanent = yes
#	allowed_to_target_tributaries = no
#	
#	infamy_modifier = 2
#	
#	can_use_gui = {
#		conditional_tooltip = {
#			trigger = {
#				has_alternate_start_setting = {
#					setting = shattered_cbs
#					option = on_limited
#				}
#			}
#			NOT = {
#				total_years_played = 25
#			}
#		}
#		conditional_tooltip = {
#			trigger = {
#				has_alternate_start_setting = {
#					setting = shattered_cbs
#					option = on_long
#				}
#			}
#			NOT = {
#				total_years_played = 100
#			}
#		}
#		ROOT = {
#			show_scope_change = no
#			prestige = 500
#			NOR = {
#				higher_tier_than = DUKE
#				num_of_count_titles = 20
#			}
#		}
#	}
#	
#	can_use = {
#		is_shattered_world = yes
#		NOT = {
#			has_alternate_start_setting = {
#				setting = shattered_cbs
#				option = off
#			}
#		}
#		conditional_tooltip = {
#			trigger = {
#				has_alternate_start_setting = {
#					setting = shattered_cbs
#					option = on_limited
#				}
#			}
#			NOT = {
#				total_years_played = 25
#			}
#		}
#		conditional_tooltip = {
#			trigger = {
#				has_alternate_start_setting = {
#					setting = shattered_cbs
#					option = on_long
#				}
#			}
#			NOT = {
#				total_years_played = 100
#			}
#		}
#		ROOT = {
#			NOT = { is_liege_or_above = FROM }
#			mercenary = no
#		}
#	}
#	
#	can_use_title = {
#		# The attacker needs at least one county in the target kingdom, or a border, or be only two sea zones away from one of your counties
#		any_direct_de_jure_vassal_title = {
#			OR = {
#				holder_scope = {
#					OR = {
#						character = ROOT
#						is_liege_or_above = ROOT
#					}
#				}
#				location = {
#					any_neighbor_province = {
#						has_owner = yes
#						owner = {
#							OR = {
#								character = ROOT
#								is_liege_or_above = ROOT
#							}
#						}
#					}
#				}
#			}
#		}
#		
#		any_de_jure_vassal_title = { # Can only liberate Duchies that are either outside of the Steppe region, or contains a Castle/City/Tribe
#			tier = COUNT
#			OR = {
#				holder_scope = {
#					character = FROM
#				}
#				holder_scope = {
#					any_liege = {
#						character = FROM
#					}
#				}
#			}
#			OR = {
#				location = {
#					NOT = {
#						region = world_steppe
#					}
#				}
#				location = {
#					any_province_holding = {
#						OR = {
#							holding_type = city
#							holding_type = castle
#							holding_type = tribal
#						}
#					}
#				}
#			}
#		}
#	}
#
#	is_valid = {
#		ROOT = {
#			NOT = { same_realm = FROM }
#			mercenary = no
#		}
#	}
#
#	on_add = {
#		ROOT = {
#			show_scope_change = no
#			prestige = -500
#		}
#		if = {
#			limit = { defender = { is_offmap_governor = offmap_china } }
#			attacker = {  
#				sound_effect = china_angered_emperor
#				detract_grace_super_huge_effect = yes 
#			}
#		}
#	}
#	
#	on_success = {
#		any_attacker = {
#			limit = { NOT = { character = ROOT } }
#			hidden_tooltip = { 
#				participation_scaled_prestige = 100
#			}
#		}
#		
#		FROM = { prestige = -100 }
#	}
#
#	on_success_title = {
#		ROOT = {
#			vassalize_or_take_under_title = {
#				title = PREV
#				enemy = FROM
#				anti_nomad = yes
#				type = invasion
#			}
#		}
#	}
#
#	on_fail = {
#		ROOT = { 
#			prestige = -200
#		}
#	}
#
#	on_reverse_demand = {
#		ROOT = {
#			transfer_scaled_wealth = {
#				to = FROM
#				value = 4.0
#			}
#			prestige = -200
#		}
#		FROM = {
#			participation_scaled_prestige = 300
#		}
#		any_defender = {
#			limit = { NOT = { character = FROM } }
#			hidden_tooltip = { 
#				participation_scaled_prestige = 300
#			}
#		}
#	}
#
#	attacker_ai_victory_worth = {
#		factor = -1 # always accept
#	}
#	
#	attacker_ai_defeat_worth = {
#		factor = 100
#	}
#
#	defender_ai_victory_worth = {
#		factor = -1 # always accept
#	}
#	
#	defender_ai_defeat_worth = {
#		factor = 100
#	}
#	
#	ai_will_do = {
#		factor = 1
#		modifier = {
#			factor = 0
#			ROOT = {
#				NOT = {
#					is_tribal = yes
#				}
#			}
#			NOT = {
#				any_direct_de_jure_vassal_title = {
#					any_direct_de_jure_vassal_title = {
#						OR = {
#							holding_type = castle
#							holding_type = city
#						}
#					}
#				}
#			}
#		}
#		modifier = {
#			factor = 0
#			ROOT = {
#				is_tribal = yes
#			}
#			NOT = {
#				any_direct_de_jure_vassal_title = {
#					any_direct_de_jure_vassal_title = {
#						OR = {
#							holding_type = castle
#							holding_type = city
#							holding_type = tribal
#						}
#					}
#				}
#			}
#		}
#	}
#}


shattered_invasion = {
	name = CB_NAME_INVASION
	war_name = WAR_NAME_INVASION
	sprite = 8
	truce_days = 3650
	hostile_against_others = yes
	is_permanent = yes
	can_ask_to_join_war = no
	check_de_jure_tier = KING # this scans all de jure kingdoms for the counties which are held by or vassals(or below) of selected character. Only valid if is_permanent = yes
	
	sort_priority = 1100
	
	can_use = {
		ROOT = {
			has_character_flag = great_conqueror
		}
		
		ROOT = {
			NOT = { is_liege_or_above = FROM }
			mercenary = no
		}
	}
	
	can_use_title = {
		universal_cb_restrictions_trigger = yes
		universal_cb_title_restrictions_trigger = yes
		# The attacker needs at least one county in the target kingdom, or a border
		any_direct_de_jure_vassal_title = {
			any_direct_de_jure_vassal_title = {
				OR = {
					holder_scope = {
						OR = {
							character = ROOT
							is_liege_or_above = ROOT
						}
					}
					location = {
						any_neighbor_province = {
							owner = {
								OR = {
									character = ROOT
									is_liege_or_above = ROOT
								}
							}
						}
					}
				}
			}
		}
	}
	
	is_valid = {
		universal_cb_valid_restrictions_trigger = yes
	}
	
	is_valid_title = {
		FROM = {
			any_realm_title = {
				de_jure_liege_or_above = PREVPREV
			}
		}
	}

	on_add_title = {
		hidden_tooltip = { 
			FROM = { character_event = { id = diplomatic.3099 } } #call for aid?
			#NW call for aid?
			FROM = {
				if = {
					limit = {
						ROOT = { 
							trait = wildling 
							#Only immediately call for aid if enemy is powerful
							relative_power = { who = PREV power = 0.9 }
						}
						ai = yes
						trait = nightswatch
						primary_title = { title = d_nightswatch }					
					}
					save_event_target_as = NW_lord_commander
					any_playable_ruler = { 
						limit = {	
							OR = {
								higher_tier_than = DUKE
								AND = {
									tier = DUKE
									any_demesne_province = { kingdom = { title = k_north } }
								}
							}
							nightswatch_culture_trigger = yes
							NOT = { war_with = ROOT_FROM }	
							NOT = { ROOT_FROM = { any_current_enemy = { war_with = PREVPREV } } }
							NOT = { has_character_modifier = ignored_NW_call }
							NOT = { any_liege = { war_with = ROOT_FROM } }
							NOT = { any_liege = { ROOT_FROM = { any_current_enemy = { war_with = PREVPREV } } } }
						}
						if = {
							limit = { independent = yes }
							character_event = { id = nightswatch.13 tooltip = "EVTTOOLTIP999900043" }
						}
						if = { #ask vassals a couple of days later, in case liege joins
							limit = { independent = no }
							character_event = { id = nightswatch.13 days = 2 tooltip = "EVTTOOLTIP999900043" }
						}
					}
					set_character_flag = flag_nights_watch_called_for_aid
				}
			}
		} 
		e_rebels = {
			persistent_event_target:chronicle_player = {
				if = {
					limit = { character = ROOT }
					chronicle = {
						entry = CHRONICLE_WAR_INVASION_ATTACKER
						portrait = [From.GetID]
					}
					break = yes
				}
				if = {
					limit = { character = FROM }
					chronicle = {
						entry = CHRONICLE_WAR_INVASION_DEFENDER
						portrait = [Root.GetID]
					}
					break = yes
				}
				if = {
					limit = { is_liege_or_above = ROOT }
					chronicle = {
						entry = CHRONICLE_WAR_INVASION_ATTACKER_LIEGE
						portrait = [Root.GetID]
					}
					break = yes
				}
				if = {
					limit = { is_liege_or_above = FROM }
					chronicle = {
						entry = CHRONICLE_WAR_INVASION_DEFENDER_LIEGE
						portrait = [From.GetID]
					}
				}
			}
		}
	}

	on_success = {
		hidden_tooltip = { 
			ROOT = { 
				add_character_modifier = { name = victory_timer duration = 3 }
				if = {
					limit = { has_ambition = obj_expand_realm }
					set_character_flag = obj_expand_realm_success
				}
			}
		}
		ROOT = {
			prestige = 200
			
			hidden_tooltip = {
				occupy_minors_of_occupied_settlements = FROM
				gain_all_occupied_titles = { who = FROM type = invasion }
				
				if = {
					limit = {
						has_nickname = no
					}
					random_list = {
						200 = {  }
						10 = { give_nickname = nick_the_great }
						10 = { give_nickname = nick_the_magnificent }
						10 = { give_nickname = nick_the_glorious }
						10 = { give_nickname = nick_the_conqueror }
					}
				}
			}
			hidden_tooltip = {
				character_event = { id = maintenance.24 } #Mega war flag maintenance
					
				ROOT = { 				
					character_event = { id = maintenance.24 } #Mega war flag maintenance
					character_event = { id = maintenance.21 } #Take dejure vassals (AGOT)
				} 
				FROM = {
					if = {
						limit = { is_liege_or_above = ROOT }
						character_event = { id = maintenance.25 } #Subjugation flag maintenance
					}	
				}
				FROM = { character_event = { id = diplomatic.51 days = 2 } } #destroy redundant kingdoms
			}
		}
		any_attacker = {
			limit = { NOT = { character = ROOT } }
			hidden_tooltip = { 
				participation_scaled_prestige = 200 
			}
		}
		FROM = {
			prestige = -200
		}
	}
	
	on_success_title = {
		custom_tooltip = {
			text = tribal_invasion_succ_tip
			hidden_tooltip = {
				ROOT = {
					vassalize_or_take_under_title_destroy_duchies = {
						title = PREV
						enemy = FROM
						is_crusade = yes # Even if the title holder is not participating in the war, gain holdings occupied by all Crusade participants
						type = invasion
					}
				}
			}
		}
	}

	on_fail = {
		FROM = {
			prestige = 100
		}
		any_defender = {
			limit = { NOT = { character = FROM } }
			hidden_tooltip = { participation_scaled_prestige = 100 }
		}
		ROOT = {
			prestige = -200
		}
	}

	on_reverse_demand = {
		hidden_tooltip = { FROM = { add_character_modifier = { name = victory_timer duration = 3 } } }
		ROOT = {
			prestige = -250
			transfer_scaled_wealth = {
				to = FROM
				value = 4.0
			}
		}
		FROM = { character_event = { id = maintenance.2199 tooltip = TOOLTIPmaintenance.2199 } }#Take back dejure vassals (AGOT)
		FROM = {
			prestige = 200
		}
		hidden_tooltip = {
			any_defender = {
				limit = { NOT = { character = FROM } }
				participation_scaled_prestige = 200
			}
		}
	}

	attacker_ai_victory_worth = {
		factor = 100
	}
	
	attacker_ai_defeat_worth = {
		factor = 100
	}

	defender_ai_victory_worth = {
		factor = -1 # always accept
	}
	
	defender_ai_defeat_worth = {
		factor = 150
	}
	
	ai_will_do = { 
		factor = 20
		#Dragon intimidation
		modifier = {
			factor = 0
			ROOT = { 
				NOT = { can_use_dragon_abilities_trigger = yes } 
				NOT = { relative_power = { who = FROM power = 6 } }	
			}
			FROM = { 
				can_use_dragon_abilities_trigger = yes 
				OR = {
					any_friend = { trait = dragon martial = 60 }
					AND = {  graphical_culture = dragongfx martial = 60 }
				}
				is_incapable = no
			}
		}
		modifier = { #Dont attack tributaries with strong suzerain
			factor = 0
			FROM = { 
				is_tributary = yes
				suzerain = {
					OR = {
						relative_power = { who = ROOT power = 1.5 }
						reverse_opinion = { who = ROOT value = 50 }
					}
				}
			}
		}
	}
}