#CODE;ENGLISH;FRENCH;GERMAN;;SPANISH;;;;;;;;;x

### THE WALL ###
e_winter;Winter;;;;;;;;;;;;;x
e_winter_adj;Winter;;;;;;;;;;;;;x
d_the_gift;the Gift;;;;;;;;;;;;;x
d_the_gift_adj;the Gift;;;;;;;;;;;;;x

### THE NORTH ###
d_cerwyn;Castle Cerwyn;;;;;;;;;;;;;x
d_cerwyn_adj;Castle Cerwyn;;;;;;;;;;;;;x
d_deepwood_motte;Deepwood Motte;;;;;;;;;;;;;x
d_deepwood_motte_adj;Deepwood Motte;;;;;;;;;;;;;x
d_fever;Fever;;;;;;;;;;;;;x
d_fever_adj;Fever;;;;;;;;;;;;;x
d_hornwoodcastle;Hornwood;;;;;;;;;;;;;x
d_hornwoodcastle_adj;Hornwood;;;;;;;;;;;;;x
d_long_lake;Long Lake;;;;;;;;;;;;;x
d_long_lake_adj;Long Lake;;;;;;;;;;;;;x
d_oldcastle;Oldcastle;;;;;;;;;;;;;x
d_oldcastle_adj;Oldcastle;;;;;;;;;;;;;x
d_torrhens_square;Torrhen's Square;;;;;;;;;;;;;x
d_torrhens_square_adj;Torrhen's Square;;;;;;;;;;;;;x

### THE IRON ISLANDS ###
d_blacktyde;Blacktyde;;;;;;;;;;;;;x
d_blacktyde_adj;Blacktyde;;;;;;;;;;;;;x
d_hammerhorn;Hammerhorn;;;;;;;;;;;;;x
d_hammerhorn_adj;Hammerhorn;;;;;;;;;;;;;x
d_lonely_light;Lonely Light;;;;;;;;;;;;;x
d_lonely_light_adj;Lonely Light;;;;;;;;;;;;;x
d_nettlemont;Nettlemont;;;;;;;;;;;;;x
d_nettlemont_adj;Nettlemont;;;;;;;;;;;;;x
#d_old_wyk;Old Wyk;;;;;;;;;;;;;x
#d_old_wyk_adj;Old Wyk;;;;;;;;;;;;;x
#d_orkmont;Orkmont;;;;;;;;;;;;;x
#d_orkmont_adj;Orkmont;;;;;;;;;;;;;x
d_orkwood;Orkwood;;;;;;;;;;;;;x
d_orkwood_adj;Orkwood;;;;;;;;;;;;;x
d_pebbleton;Pebbleton;;;;;;;;;;;;;x
d_pebbleton_adj;Pebbleton;;;;;;;;;;;;;x
#d_saltcliffe;Saltcliffe;;;;;;;;;;;;;x
#d_saltcliffe_adj;Saltcliffe;;;;;;;;;;;;;x
d_sealskin_point;Sealskin Point;;;;;;;;;;;;;x
d_sealskin_point_adj;Sealskin Point;;;;;;;;;;;;;x

### THE VALE ###
d_hearts_home;Heart's Home;;;;;;;;;;;;;x
d_hearts_home_adj;Heart's Home;;;;;;;;;;;;;x
d_longbow_hall;Longbow Hall;;;;;;;;;;;;;x
d_longbow_hall_adj;Longbow Hall;;;;;;;;;;;;;x
d_newkeep;Newkeep;;;;;;;;;;;;;x
d_newkeep_adj;Newkeep;;;;;;;;;;;;;x
d_old_anchor;Old Anchor;;;;;;;;;;;;;x
d_old_anchor_adj;Old Anchor;;;;;;;;;;;;;x

### THE RIVERLANDS ###
d_greenfork;the Mountain Road;;;;;;;;;;;;;x
d_greenfork_adj;the Mountain Road;;;;;;;;;;;;;x
d_oldstones_ruin;Oldstones;;;;;;;;;;;;;x
d_oldstones_ruin_adj;Oldstones;;;;;;;;;;;;;x
d_pinkmaiden;Pinkmaiden;;;;;;;;;;;;;x
d_pinkmaiden_adj;Pinkmaiden;;;;;;;;;;;;;x

### THE WESTERLANDS ###
d_banefort;the Banefort;;;;;;;;;;;;;x
d_banefort_adj;the Banefort;;;;;;;;;;;;;x
d_deep_den;Deep Den;;;;;;;;;;;;;x
d_deep_den_adj;Deep Den;;;;;;;;;;;;;x
d_goldencoast;Summer Coast;;;;;;;;;;;;;x
d_goldencoast_adj;Summer Coast;;;;;;;;;;;;;x
d_river_road;the River Road;;;;;;;;;;;;;x
d_river_road_adj;the River Road;;;;;;;;;;;;;x
d_tarbeck;Tarbeck Hall;;;;;;;;;;;;;x
d_tarbeck_adj;Tarbeck Hall;;;;;;;;;;;;;x

### THE CROWNLANDS ###
e_crownlands;the Blackwater;;;;;;;;;;;;;x
e_crownlands_adj;the Blackwater;;;;;;;;;;;;;x
d_antlers;the Antlers;Les Epois;;;Cornamentas;;;;;;;;;x
d_antlers_adj;the Antlers;Les Epois;;;Cornamentas;;;;;;;;;x
d_rooks_rest;Rook's Rest;Repos-des-Freux;;;Descanso del Grajo;;;;;;;;;x
d_rooks_rest_adj;Rook's Rest;Repos-des-Freux;;;Descanso del Grajo;;;;;;;;;x

### THE STORMLANDS ###
k_summerhall;Summerhall;;;;;;;;;;;;;x
k_summerhall_adj;Summerhall;;;;;;;;;;;;;x
d_blackhaven;Blackhaven;;;;;;;;;;;;;x
d_blackhaven_adj;Blackhaven;;;;;;;;;;;;;x
d_durranvale;Durranvale;;;;;;;;;;;;;x
d_durranvale_adj;Durranvale;;;;;;;;;;;;;x
d_estermont;Estermont;;;;;;;;;;;;;x
d_estermont_adj;Estermont;;;;;;;;;;;;;x
d_gallowsgrey;Gallowsgrey;;;;;;;;;;;;;x
d_gallowsgrey_adj;Gallowsgrey;;;;;;;;;;;;;x
d_harvest_hall;Harvest Hall;;;;;;;;;;;;;x
d_harvest_hall_adj;Harvest Hall;;;;;;;;;;;;;x
d_haystack_hall;Haystack Hall;;;;;;;;;;;;;x
d_haystack_hall_adj;Haystack Hall;;;;;;;;;;;;;x
d_nightsong;Nightsong;;;;;;;;;;;;;x
d_nightsong_adj;Nightsong;;;;;;;;;;;;;x
d_rain_house;Rain House;;;;;;;;;;;;;x
d_rain_house_adj;Rain House;;;;;;;;;;;;;x

### THE REACH ###
d_blackcrown;Blackcrown;;;;;;;;;;;;;x
d_blackcrown_adj;Blackcrown;;;;;;;;;;;;;x
d_starpike;Starpike;;;;;;;;;;;;;x
d_starpike_adj;Starpike;;;;;;;;;;;;;x
d_three_towers;Three Towers;;;;;;;;;;;;;x
d_three_towers_adj;Three Towers;;;;;;;;;;;;;x
d_uplands;Uplands;;;;;;;;;;;;;x
d_uplands_adj;Uplands;;;;;;;;;;;;;x

### DORNE ###
d_ghaston_grey;Ghaston Grey;;;;;;;;;;;;;x
d_ghaston_grey_adj;Ghaston Grey;;;;;;;;;;;;;x
d_godsgrace;Godsgrace;;;;;;;;;;;;;x
d_godsgrace_adj;Godsgrace;;;;;;;;;;;;;x
d_greenblood;the Greenblood;;;;;;;;;;;;;x
d_greenblood_adj;the Greenblood;;;;;;;;;;;;;x
d_sandstone;Sandstone;;;;;;;;;;;;;x
d_sandstone_adj;Sandstone;;;;;;;;;;;;;x
d_starfall;Starfall;;;;;;;;;;;;;x
d_starfall_adj;Starfall;;;;;;;;;;;;;x
d_the_tor;the Tor;;;;;;;;;;;;;x
d_the_tor_adj;the Tor;;;;;;;;;;;;;x
d_wells;The Wells;;;;;;;;;;;;;x
d_wells_adj;The Wells;;;;;;;;;;;;;x
d_wyl;Wyl;;;;;;;;;;;;;x
d_wyl_adj;Wyl;;;;;;;;;;;;;x
d_yronwood;Yronwood;Ferboys;Yronwood;Yronwood;Palosanto;;;;;;;;;x
d_yronwood_adj;Yronwood;Ferboys;Yronwood;Yronwood;Palosanto;;;;;;;;;x

### ESSOS ###
e_bones;the Bone Mountains;;;;;;;;;;;;;x
e_bones_adj;the Bone Mountains;;;;;;;;;;;;;x
ESSOS;Essos;;;;;;;;;;;;;x

### OTHER ###
BLACKWATER;The Blackwater;;;;;;;;;;;;;x
#PROV1200;Northern Frostfangs;;;;;;;;;;;;;x
#PROV1218;Southern Frostfangs;;;;;;;;;;;;;x
#PROV1219;Northern Mountains;;;;;;;;;;;;;x
#PROV1220;Swamps of the Neck;;;;;;;;;;;;;x
#PROV1221;Mountains of the Moon;;;;;;;;;;;;;x
#PROV1222;Vale Mountains;;;;;;;;;;;;;x
#PROV1223;Gold Mountains;;;;;;;;;;;;;x
#PROV1224;Eastern Hills;;;;;;;;;;;;;x
#PROV1225;Western Hills;;;;;;;;;;;;;x
#PROV1226;Southern Red Mountains;;;;;;;;;;;;;x
#PROV1227;Central Red Mountains;;;;;;;;;;;;;x
#PROV1228;Northern Red Mountains;;;;;;;;;;;;;x