#CODE;ENGLISH;FRENCH;GERMAN;;SPANISH;;;;;;;;;x
## title_prefix
MERGED_justkingdom;Kingdom;;;;;;;;;;;;;x
MERGED_runiccrown;Runic Crown of;;;;;;;;;;;;;x

## title male
barrowking_male;Barrow King;Roi des Tertres;;;Rey Tumulario;;;;;;;;;x
marshking_male;Marsh King;Roi des Marches;Marsh King;;Rey del Pantano;;;;;;;;;x
wolfking_male;Wolf King;Roi Loup;Wolf King;;Rey Lobo;;;;;;;;;x
MERGED_bronzeking;Bronze King;;;;;;;;;;;;;x

## title female
barrowking_female;Barrow Queen;Reine des Tertres;;;Reina Tumularia;;;;;;;;;x
marshking_female;Marsh Queen;Reine des Marches;Marsh Queen;;Reina del Pantano;;;;;;;;;x
wolfking_female;Wolf Queen;Reine Louve;Wolf Queen;;Reina Loba;;;;;;;;;x
MERGED_bronzequeen;Bronze Queen;;;;;;;;;;;;;x