d_golden_company = {
	color = { 249 249 249 }
	color2 = { 255 215 0 }
	
	#capital = volantis

	mercenary = yes
	
	# Hire Trigger
	allow = {
		has_character_modifier = golden_company_hired
		NOT = { culture_group = unoccupied_group }
	}

	title = "CAPTAINGENERAL"
	foa = "CAPTAIN_FOA"

	# Always exists
	landless = yes
	primary = yes
	
	culture = volantene
	religion = rhllor
	
	mercenary_type = d_merc_golden_company
	hire_range = 9999 #can be hired by anyone
}
k_golden_company = {
	color = { 249 249 249 }
	color2 = { 255 215 0 }
	
	allow = { always = no }

	title = "CAPTAINGENERAL"
	foa = "CAPTAIN_FOA"
	
	culture = crownlander
	religion = the_seven

	# Always exists
	landless = yes	
}
d_brave_companions = {
	color = { 249 249 249 }
	color2 = { 255 215 0 }
	
	capital = 476 #Qohor

	mercenary = yes
	
	# Hire Trigger
	allow = {
		NOT = { capital_scope = { region = world_beyond_the_wall } } #Not a tribe beyond the wall
		is_nomadic = no
		NOT = { culture_group = winter_group }
		NOT = { culture_group = unoccupied_group }
	}

	title = "CAPTAIN"
	foa = "CAPTAIN_FOA"

	# Always exists
	landless = yes
	primary = yes
	
	culture = qohorik
	religion = black_goat
	
	mercenary_type = d_brave_companions
}
d_bright_banners = {
	color = { 249 249 249 }
	color2 = { 255 215 0 }
	
	capital = 417 #volantis

	mercenary = yes
	
	# Hire Trigger
	allow = {
		NOT = { capital_scope = { region = world_beyond_the_wall } } #Not a tribe beyond the wall
		is_nomadic = no
		NOT = { culture_group = winter_group }
		NOT = { culture_group = unoccupied_group }
	}

	title = "CAPTAIN"
	foa = "CAPTAIN_FOA"

	# Always exists
	landless = yes
	primary = yes
	
	culture = norvosi
	religion = bearded_priests
	
	mercenary_type = d_large_free_city_merc
}
d_company_of_the_cat = {
	color = { 249 249 249 }
	color2 = { 255 215 0 }
	
	capital = 417 #volantis

	mercenary = yes
	
	# Hire Trigger
	allow = {
		NOT = { capital_scope = { region = world_beyond_the_wall } } #Not a tribe beyond the wall
		is_nomadic = no
		NOT = { culture_group = winter_group }
		NOT = { culture_group = unoccupied_group }
	}

	title = "CAPTAIN"
	foa = "CAPTAIN_FOA"

	# Always exists
	landless = yes
	primary = yes
	
	culture = myrman
	religion = rhllor
	
	mercenary_type = d_company_of_the_cat
}
d_gallant_men = {
	color = { 249 249 249 }
	color2 = { 255 215 0 }
	
	capital = 417 #volantis

	mercenary = yes
	
	# Hire Trigger
	allow = {
		NOT = { capital_scope = { region = world_beyond_the_wall } } #Not a tribe beyond the wall
		is_nomadic = no
		NOT = { culture_group = winter_group }
		NOT = { culture_group = unoccupied_group }
	}

	title = "CAPTAIN"
	foa = "CAPTAIN_FOA"

	# Always exists
	landless = yes
	primary = yes
	
	culture = lysene
	religion = rhllor
	
	mercenary_type = d_large_free_city_merc
}
d_iron_shields = {
	color = { 249 249 249 }
	color2 = { 255 215 0 }
	
	capital = 417 #volantis

	mercenary = yes
	
	# Hire Trigger
	allow = {
		NOT = { capital_scope = { region = world_beyond_the_wall } } #Not a tribe beyond the wall
		is_nomadic = no
		NOT = { culture_group = winter_group }
		NOT = { culture_group = unoccupied_group }
	}

	title = "CAPTAIN"
	foa = "CAPTAIN_FOA"

	# Always exists
	landless = yes
	primary = yes
	
	culture = braavosi
	religion = moonsingers
	
	mercenary_type = d_large_free_city_merc
}
d_long_lances = {
	color = { 249 249 249 }
	color2 = { 255 215 0 }
	
	capital = 417 #volantis

	mercenary = yes
	
	# Hire Trigger
	allow = {
		NOT = { capital_scope = { region = world_beyond_the_wall } } #Not a tribe beyond the wall
		is_nomadic = no
		NOT = { culture_group = winter_group }
		NOT = { culture_group = unoccupied_group }
	}

	title = "CAPTAIN"
	foa = "CAPTAIN_FOA"

	# Always exists
	landless = yes
	primary = yes
	
	culture = volantene
	religion = rhllor
	
	mercenary_type = d_long_lances
}
d_maidens_men = {
	color = { 249 249 249 }
	color2 = { 255 215 0 }
	
	capital = 417 #volantis

	mercenary = yes
	
	# Hire Trigger
	allow = {
		NOT = { capital_scope = { region = world_beyond_the_wall } } #Not a tribe beyond the wall
		is_nomadic = no
		NOT = { culture_group = winter_group }
		NOT = { culture_group = unoccupied_group }
	}

	title = "CAPTAIN"
	foa = "CAPTAIN_FOA"

	# Always exists
	landless = yes
	primary = yes
	
	culture = riverlander
	religion = the_seven
	
	mercenary_type = d_large_free_city_merc
}
d_men_of_valor = {
	color = { 249 249 249 }
	color2 = { 255 215 0 }
	
	capital = 367 #Tyrosh

	mercenary = yes
	
	# Hire Trigger
	allow = {
		NOT = { capital_scope = { region = world_beyond_the_wall } } #Not a tribe beyond the wall
		is_nomadic = no
		NOT = { culture_group = winter_group }
		NOT = { culture_group = unoccupied_group }
	}

	title = "CAPTAIN"
	foa = "CAPTAIN_FOA"

	# Always exists
	landless = yes
	primary = yes
	
	culture = tyroshi
	religion = trios
	
	mercenary_type = d_medium_free_city_merc
}
d_ragged_standard = {
	color = { 249 249 249 }
	color2 = { 255 215 0 }
	
	capital = 417 #volantis

	mercenary = yes
	
	# Hire Trigger
	allow = {
		NOT = { capital_scope = { region = world_beyond_the_wall } } #Not a tribe beyond the wall
		is_nomadic = no
		NOT = { culture_group = winter_group }
		NOT = { culture_group = unoccupied_group }
	}

	title = "CAPTAIN"
	foa = "CAPTAIN_FOA"

	# Always exists
	landless = yes
	primary = yes
	
	culture = tyroshi
	religion = trios
	
	mercenary_type = d_large_free_city_merc
}
d_second_sons = {
	color = { 249 249 249 }
	color2 = { 255 215 0 }
	
	capital = 417 #volantis

	mercenary = yes
	
	# Hire Trigger
	allow = {
		NOT = { capital_scope = { region = world_beyond_the_wall } } #Not a tribe beyond the wall
		is_nomadic = no
		NOT = { culture_group = winter_group }
		NOT = { culture_group = unoccupied_group }
	}

	title = "CAPTAIN"
	foa = "CAPTAIN_FOA"

	# Always exists
	landless = yes
	primary = yes
	
	culture = pentosi
	religion = rhllor
	
	mercenary_type = d_second_sons
}
d_stormcrows = {
	color = { 249 249 249 }
	color2 = { 255 215 0 }
	
	capital = 417 #volantis

	mercenary = yes
	
	# Hire Trigger
	allow = {
		NOT = { capital_scope = { region = world_beyond_the_wall } } #Not a tribe beyond the wall
		is_nomadic = no
		NOT = { culture_group = winter_group }
		NOT = { culture_group = unoccupied_group }
	}

	title = "CAPTAIN"
	foa = "CAPTAIN_FOA"

	# Always exists
	landless = yes
	primary = yes
	
	culture = lorathi
	religion = moonsingers
	
	mercenary_type = d_stormcrows
}
d_windblown = {
	color = { 249 249 249 }
	color2 = { 255 215 0 }
	
	capital = 417 #volantis

	mercenary = yes
	
	# Hire Trigger
	allow = {
		NOT = { capital_scope = { region = world_beyond_the_wall } } #Not a tribe beyond the wall
		is_nomadic = no
		NOT = { culture_group = winter_group }
		NOT = { culture_group = unoccupied_group }
	}

	title = "CAPTAIN"
	foa = "CAPTAIN_FOA"

	# Always exists
	landless = yes
	primary = yes
	
	culture = pentosi
	religion = rhllor
	
	mercenary_type = d_windblown
}
d_stormbreakers = {
	color = { 249 249 249 }
	color2 = { 255 215 0 }
	
	capital = 367 #Changed to Tyrosh from 406 #Pentos according to Fire and Blood

	mercenary = yes
	
	# Hire Trigger
	allow = {
		NOT = { capital_scope = { region = world_beyond_the_wall } } #Not a tribe beyond the wall
		is_nomadic = no
		NOT = { culture_group = winter_group }
		NOT = { culture_group = unoccupied_group }
	}

	title = "CAPTAIN"
	foa = "CAPTAIN_FOA"

	# Always exists
	landless = yes
	primary = yes
	
	culture = stormlander
	religion = the_seven
	
	mercenary_type = d_large_free_city_merc
}
d_lost_legion = {
	color = { 249 249 249 }
	color2 = { 255 215 0 }
	
	capital = 417 #volantis

	mercenary = yes
	
	# Hire Trigger
	allow = {
		NOT = { capital_scope = { region = world_beyond_the_wall } } #Not a tribe beyond the wall
		is_nomadic = no
		NOT = { culture_group = winter_group }
		NOT = { culture_group = unoccupied_group }
	}

	title = "CAPTAIN"
	foa = "CAPTAIN_FOA"

	# Always exists
	landless = yes
	primary = yes
	
	culture = volantene
	religion = valyrian_rel
	
	mercenary_type = d_second_sons
}
d_adventurers = {
	color = { 249 249 249 }
	color2 = { 255 215 0 }
	
	capital = 378 #Myr

	mercenary = yes
	
	# Hire Trigger
	allow = {
		NOT = { capital_scope = { region = world_beyond_the_wall } } #Not a tribe beyond the wall
		is_nomadic = no
		NOT = { culture_group = winter_group }
		NOT = { culture_group = unoccupied_group }
	}

	title = "CAPTAIN"
	foa = "CAPTAIN_FOA"

	# Always exists
	landless = yes
	primary = yes
	
	culture = myrman
	religion = rhllor
	
	mercenary_type = d_small_free_city_merc
}
d_free_company = {
	color = { 249 249 249 }
	color2 = { 255 215 0 }
	
	capital = 378 #Myr

	mercenary = yes
	
	# Hire Trigger
	allow = {
		NOT = { capital_scope = { region = world_beyond_the_wall } } #Not a tribe beyond the wall
		is_nomadic = no
		NOT = { culture_group = winter_group }
		NOT = { culture_group = unoccupied_group }
	}

	title = "CAPTAIN"
	foa = "CAPTAIN_FOA"

	# Always exists
	landless = yes
	primary = yes
	
	culture = myrman
	religion = rhllor
	
	mercenary_type = d_small_free_city_merc
}
d_jolly_fellows = {
	color = { 249 249 249 }
	color2 = { 255 215 0 }
	
	capital = 368 #Lys

	mercenary = yes
	
	# Hire Trigger
	allow = {
		NOT = { capital_scope = { region = world_beyond_the_wall } } #Not a tribe beyond the wall
		is_nomadic = no
		NOT = { culture_group = winter_group }
		NOT = { culture_group = unoccupied_group }
	}

	title = "CAPTAIN"
	foa = "CAPTAIN_FOA"

	# Always exists
	landless = yes
	primary = yes
	
	culture = lysene
	religion = weeping_lady
	
	mercenary_type = d_medium_free_city_merc
}
d_company_of_the_rose = {
	color = { 249 249 249 }
	color2 = { 255 215 0 }
	
	capital = 406 #Pentos

	mercenary = yes
	
	# Hire Trigger
	allow = {
		NOT = { capital_scope = { region = world_beyond_the_wall } } #Not a tribe beyond the wall
		is_nomadic = no
		NOT = { culture_group = winter_group }
		NOT = { culture_group = unoccupied_group }
	}

	title = "CAPTAIN"
	foa = "CAPTAIN_FOA"

	# Always exists
	landless = yes
	primary = yes
	
	culture = northman
	religion = old_gods
	
	mercenary_type = d_company_of_the_rose_merc
}
d_wolf_pack = {
	color = { 249 249 249 }
	color2 = { 255 215 0 }
	
	capital = 406 #Pentos

	mercenary = yes
	
	# Hire Trigger
	allow = {
		NOT = { capital_scope = { region = world_beyond_the_wall } } #Not a tribe beyond the wall
		is_nomadic = no
		NOT = { culture_group = winter_group }
		NOT = { culture_group = unoccupied_group }
	}

	title = "CAPTAIN"
	foa = "CAPTAIN_FOA"

	# Always exists
	landless = yes
	primary = yes
	
	culture = northman
	religion = old_gods
	
	mercenary_type = d_medium_free_city_merc
}
d_merc_inf_1 = {
	color = { 100 50 30 }
	color2 = { 255 255 255 }

	capital = 101 #Riverrun

	allow = {
		NOT = { capital_scope = { region = world_beyond_the_wall } } #Not a tribe beyond the wall
		is_nomadic = no
		NOT = { culture_group = winter_group }
		NOT = { culture_group = unoccupied_group }
	}
	
	mercenary = yes

	title = "CAPTAIN"
	foa = "CAPTAIN_FOA"

	# Always exists
	landless = yes
	
	#culture = riverlander_sell
	religion = the_seven
		
	# Cannot be vassalized
	independent = yes
	
	mercenary_type = d_merc_inf
}
d_merc_inf_2 = {
	color = { 100 50 30 }
	color2 = { 255 255 255 }

	capital = 107 #Harrenhal

	allow = {
		NOT = { capital_scope = { region = world_beyond_the_wall } } #Not a tribe beyond the wall
		is_nomadic = no
		NOT = { culture_group = winter_group }
		NOT = { culture_group = unoccupied_group }
	}
	
	mercenary = yes

	title = "CAPTAIN"
	foa = "CAPTAIN_FOA"

	# Always exists
	landless = yes
	
	#culture = riverlander_sell
	religion = the_seven
	
	# Cannot be vassalized
	independent = yes
	
	mercenary_type = d_merc_inf
}
d_merc_inf_3 = {
	color = { 100 50 30 }
	color2 = { 255 255 255 }

	capital = 47 #Winterfell

	allow = {
		NOT = { capital_scope = { region = world_beyond_the_wall } } #Not a tribe beyond the wall
		is_nomadic = no
		NOT = { culture_group = winter_group }
		NOT = { culture_group = unoccupied_group }
	}
	
	mercenary = yes

	title = "CAPTAIN"
	foa = "CAPTAIN_FOA"

	# Always exists
	landless = yes
	
	#culture = northman_sell
	religion = old_gods
	
	# Cannot be vassalized
	independent = yes
	
	mercenary_type = d_merc_inf
}
d_merc_inf_4 = {
	color = { 100 50 30 }
	color2 = { 255 255 255 }

	capital = 62	#White Harbour

	allow = {
		NOT = { capital_scope = { region = world_beyond_the_wall } } #Not a tribe beyond the wall
		is_nomadic = no
		NOT = { culture_group = winter_group }
		NOT = { culture_group = unoccupied_group }
	}
	
	mercenary = yes

	title = "CAPTAIN"
	foa = "CAPTAIN_FOA"

	# Always exists
	landless = yes
	
	#culture = northman_sell
	religion = old_gods
	
	# Cannot be vassalized
	independent = yes
	
	mercenary_type = d_merc_inf
}
d_merc_inf_5 = {
	color = { 100 50 30 }
	color2 = { 255 255 255 }

	capital = 149 #Gulltown

	allow = {
		NOT = { capital_scope = { region = world_beyond_the_wall } } #Not a tribe beyond the wall
		is_nomadic = no
		NOT = { culture_group = winter_group }
		NOT = { culture_group = unoccupied_group }
	}
	
	mercenary = yes

	title = "CAPTAIN"
	foa = "CAPTAIN_FOA"

	# Always exists
	landless = yes
	
	#culture = northman_sell
	religion = the_seven
	
	# Cannot be vassalized
	independent = yes
	
	mercenary_type = d_merc_inf
}
d_merc_inf_6 = {
	color = { 100 50 30 }
	color2 = { 255 255 255 }

	capital = 136 #The Eyrie

	allow = {
		NOT = { capital_scope = { region = world_beyond_the_wall } } #Not a tribe beyond the wall
		is_nomadic = no
		NOT = { culture_group = winter_group }
		NOT = { culture_group = unoccupied_group }
	}
	
	mercenary = yes

	title = "CAPTAIN"
	foa = "CAPTAIN_FOA"

	# Always exists
	landless = yes
	
	#culture = northman_sell
	religion = the_seven
	
	# Cannot be vassalized
	independent = yes
	
	mercenary_type = d_merc_inf
}
d_merc_inf_7 = {
	color = { 100 50 30 }
	color2 = { 255 255 255 }

	capital = 183 #Lannisport

	allow = {
		NOT = { capital_scope = { region = world_beyond_the_wall } } #Not a tribe beyond the wall
		is_nomadic = no
		NOT = { culture_group = winter_group }
		NOT = { culture_group = unoccupied_group }
	}
	
	mercenary = yes

	title = "CAPTAIN"
	foa = "CAPTAIN_FOA"

	# Always exists
	landless = yes
	
	#culture = westerman_sell
	religion = the_seven
	
	# Cannot be vassalized
	independent = yes
	
	mercenary_type = d_merc_inf
}
d_merc_inf_8 = {
	color = { 100 50 30 }
	color2 = { 255 255 255 }

	capital = 180 #Hornvale

	allow = {
		NOT = { capital_scope = { region = world_beyond_the_wall } } #Not a tribe beyond the wall
		is_nomadic = no
		NOT = { culture_group = winter_group }
		NOT = { culture_group = unoccupied_group }
	}
	
	mercenary = yes

	title = "CAPTAIN"
	foa = "CAPTAIN_FOA"

	# Always exists
	landless = yes
	
	#culture = westerman_sell
	religion = the_seven
	
	# Cannot be vassalized
	independent = yes
	
	mercenary_type = d_merc_inf
}
d_merc_inf_9 = {
	color = { 100 50 30 }
	color2 = { 255 255 255 }

	capital = 226 #King's Landing

	allow = {
		NOT = { capital_scope = { region = world_beyond_the_wall } } #Not a tribe beyond the wall
		is_nomadic = no
		NOT = { culture_group = winter_group }
		NOT = { culture_group = unoccupied_group }
	}
	
	mercenary = yes

	title = "CAPTAIN"
	foa = "CAPTAIN_FOA"

	# Always exists
	landless = yes
	
	#culture = riverlander_sell
	religion = the_seven
	
	# Cannot be vassalized
	independent = yes
	
	mercenary_type = d_merc_inf
}
d_merc_inf_10 = {
	color = { 100 50 30 }
	color2 = { 255 255 255 }

	capital = 286 #Oldtown

	allow = {
		NOT = { capital_scope = { region = world_beyond_the_wall } } #Not a tribe beyond the wall
		is_nomadic = no
		NOT = { culture_group = winter_group }
		NOT = { culture_group = unoccupied_group }
	}
	
	mercenary = yes

	title = "CAPTAIN"
	foa = "CAPTAIN_FOA"

	# Always exists
	landless = yes
	
	#culture = riverlander_sell
	religion = the_seven
	
	# Cannot be vassalized
	independent = yes
	
	mercenary_type = d_merc_inf
}
d_merc_inf_11 = {
	color = { 100 50 30 }
	color2 = { 255 255 255 }

	capital = 267 #Highgarden

	allow = {
		NOT = { capital_scope = { region = world_beyond_the_wall } } #Not a tribe beyond the wall
		is_nomadic = no
		NOT = { culture_group = winter_group }
		NOT = { culture_group = unoccupied_group }
	}
	
	mercenary = yes

	title = "CAPTAIN"
	foa = "CAPTAIN_FOA"

	# Always exists
	landless = yes
	
	#culture = riverlander_sell
	religion = the_seven
	
	# Cannot be vassalized
	independent = yes
	
	mercenary_type = d_merc_inf
}
d_merc_inf_12 = {
	color = { 100 50 30 }
	color2 = { 255 255 255 }

	capital = 304 #Storm's End

	allow = {
		NOT = { capital_scope = { region = world_beyond_the_wall } } #Not a tribe beyond the wall
		is_nomadic = no
		NOT = { culture_group = winter_group }
		NOT = { culture_group = unoccupied_group }
	}
	
	mercenary = yes

	title = "CAPTAIN"
	foa = "CAPTAIN_FOA"

	# Always exists
	landless = yes
	
	#culture = riverlander_sell
	religion = the_seven
	
	# Cannot be vassalized
	independent = yes
	
	mercenary_type = d_merc_inf
}
d_merc_inf_13 = {
	color = { 100 50 30 }
	color2 = { 255 255 255 }

	capital = 161 #Lordsport

	allow = {
		NOT = { capital_scope = { region = world_beyond_the_wall } } #Not a tribe beyond the wall
		is_nomadic = no
		NOT = { culture_group = winter_group }
		NOT = { culture_group = unoccupied_group }
	}
	
	mercenary = yes

	title = "CAPTAIN"
	foa = "CAPTAIN_FOA"

	# Always exists
	landless = yes
	
	#culture = riverlander_sell
	religion = drowned_god
	
	# Cannot be vassalized
	independent = yes
	
	mercenary_type = d_merc_ironborn
}
d_merc_dornishspears_1 = {
	color = { 100 50 30 }
	color2 = { 255 255 255 }

	capital = 352 #Sunspear

	allow = {
		NOT = { capital_scope = { region = world_beyond_the_wall } } #Not a tribe beyond the wall
		is_nomadic = no
		NOT = { culture_group = winter_group }
		NOT = { culture_group = unoccupied_group }
	}
	
	mercenary = yes

	title = "CAPTAIN"
	foa = "CAPTAIN_FOA"

	# Always exists
	landless = yes
	
	#culture = dornish_sell
	religion = the_seven
	
	# Cannot be vassalized
	independent = yes
	
	mercenary_type = d_merc_dornish
}
d_merc_dornishspears_2 = {
	color = { 100 50 30 }
	color2 = { 255 255 255 }

	capital = 334 #Yronwood

	allow = {
		NOT = { capital_scope = { region = world_beyond_the_wall } } #Not a tribe beyond the wall
		is_nomadic = no
		NOT = { culture_group = winter_group }
		NOT = { culture_group = unoccupied_group }
	}
	
	mercenary = yes

	title = "CAPTAIN"
	foa = "CAPTAIN_FOA"

	# Always exists
	landless = yes
	
	#culture = dornish_sell
	religion = the_seven
	
	# Cannot be vassalized
	independent = yes
	
	mercenary_type = d_merc_dornish
}
d_merc_dornishspears_3 = {
	color = { 100 50 30 }
	color2 = { 255 255 255 }

	capital = 335 #Starfall

	allow = {
		NOT = { capital_scope = { region = world_beyond_the_wall } } #Not a tribe beyond the wall
		is_nomadic = no
		NOT = { culture_group = winter_group }
		NOT = { culture_group = unoccupied_group }
	}
	
	mercenary = yes

	title = "CAPTAIN"
	foa = "CAPTAIN_FOA"

	# Always exists
	landless = yes
	
	#culture = dornish_sell
	religion = the_seven
	
	# Cannot be vassalized
	independent = yes
	
	mercenary_type = d_merc_dornish
}
d_merc_dornishspears_4 = {
	color = { 100 50 30 }
	color2 = { 255 255 255 }

	capital = 346 #Salt Shore

	allow = {
		NOT = { capital_scope = { region = world_beyond_the_wall } } #Not a tribe beyond the wall
		is_nomadic = no
		NOT = { culture_group = winter_group }
		NOT = { culture_group = unoccupied_group }
	}
	
	mercenary = yes

	title = "CAPTAIN"
	foa = "CAPTAIN_FOA"

	# Always exists
	landless = yes
	
	#culture = dornish_sell
	religion = the_seven
	
	# Cannot be vassalized
	independent = yes
	
	mercenary_type = d_merc_dornish
}
d_merc_dornishspears_5 = {
	color = { 100 50 30 }
	color2 = { 255 255 255 }

	capital = 331 #Kingsgrave
	
	allow = {
		NOT = { capital_scope = { region = world_beyond_the_wall } } #Not a tribe beyond the wall
		is_nomadic = no
		NOT = { culture_group = winter_group }
		NOT = { culture_group = unoccupied_group }
	}
	
	mercenary = yes

	title = "CAPTAIN"
	foa = "CAPTAIN_FOA"

	# Always exists
	landless = yes
	
	#culture = dornish_sell
	religion = the_seven
	
	# Cannot be vassalized
	independent = yes
	
	mercenary_type = d_merc_dornish
}
d_merc_dornishspears_6 = {
	color = { 100 50 30 }
	color2 = { 255 255 255 }

	capital = 338 #Hellholt

	allow = {
		NOT = { capital_scope = { region = world_beyond_the_wall } } #Not a tribe beyond the wall
		is_nomadic = no
		NOT = { culture_group = winter_group }
		NOT = { culture_group = unoccupied_group }
	}
	
	mercenary = yes

	title = "CAPTAIN"
	foa = "CAPTAIN_FOA"

	# Always exists
	landless = yes
	
	#culture = dornish_sell
	religion = the_seven
	
	# Cannot be vassalized
	independent = yes
	
	mercenary_type = d_merc_dornish
}

d_merc_hedgeknight_1 = {
	color = { 100 50 30 }
	color2 = { 255 255 255 }

	capital = 79 #Seagard

	# Can only by westerosi rulers
	allow = {
		OR = {
			culture_group = first_men
			culture_group = andal
			religion = the_seven
		}
		NOT = { capital_scope = { region = world_beyond_the_wall } } #Not a tribe beyond the wall
		is_nomadic = no
		NOT = { culture_group = winter_group }
		NOT = { culture_group = unoccupied_group }	
	}
	
	mercenary = yes

	title = "CAPTAIN"
	foa = "CAPTAIN_FOA"

	# Always exists
	landless = yes
	
	#culture = riverlander_sell
	religion = the_seven
	
	# Cannot be vassalized
	independent = yes
	
	mercenary_type = d_merc_hedgeknight
}
d_merc_hedgeknight_2 = {
	color = { 100 50 30 }
	color2 = { 255 255 255 }

	capital = 112 #Stoney Sept

	# Can only by westerosi rulers
	allow = {
		OR = {
			culture_group = first_men
			culture_group = andal
			religion = the_seven
		}
		NOT = { capital_scope = { region = world_beyond_the_wall } } #Not a tribe beyond the wall
		is_nomadic = no
		NOT = { culture_group = winter_group }
		NOT = { culture_group = unoccupied_group }	
	}
	
	mercenary = yes

	title = "CAPTAIN"
	foa = "CAPTAIN_FOA"

	# Always exists
	landless = yes
	
	#culture = riverlander_sell
	religion = the_seven
	
	# Cannot be vassalized
	independent = yes
	
	mercenary_type = d_merc_hedgeknight
}
d_merc_hedgeknight_3 = {
	color = { 100 50 30 }
	color2 = { 255 255 255 }

	capital = 62 #White Harbour

	# Can only by westerosi rulers
	allow = {
		OR = {
			culture_group = first_men
			culture_group = andal
			religion = the_seven
		}
		NOT = { capital_scope = { region = world_beyond_the_wall } } #Not a tribe beyond the wall
		is_nomadic = no
		NOT = { culture_group = winter_group }
		NOT = { culture_group = unoccupied_group }	
	}
	
	mercenary = yes

	title = "CAPTAIN"
	foa = "CAPTAIN_FOA"

	# Always exists
	landless = yes
	
	#culture = riverlander_sell
	religion = the_seven
	
	# Cannot be vassalized
	independent = yes
	
	mercenary_type = d_merc_hedgeknight
}
d_merc_hedgeknight_4 = {
	color = { 100 50 30 }
	color2 = { 255 255 255 }

	capital = 137 #Heart's Home

	# Can only by westerosi rulers
	allow = {
		OR = {
			culture_group = first_men
			culture_group = andal
			religion = the_seven
		}
		NOT = { capital_scope = { region = world_beyond_the_wall } } #Not a tribe beyond the wall
		is_nomadic = no
		NOT = { culture_group = winter_group }
		NOT = { culture_group = unoccupied_group }	
	}
	
	mercenary = yes

	title = "CAPTAIN"
	foa = "CAPTAIN_FOA"

	# Always exists
	landless = yes
	
	#culture = riverlander_sell
	religion = the_seven
	
	# Cannot be vassalized
	independent = yes
	
	mercenary_type = d_merc_hedgeknight
}
d_merc_hedgeknight_5 = {
	color = { 100 50 30 }
	color2 = { 255 255 255 }

	capital = 173 #Ashemark

	# Can only by westerosi rulers
	allow = {
		OR = {
			culture_group = first_men
			culture_group = andal
			religion = the_seven
		}
		NOT = { capital_scope = { region = world_beyond_the_wall } } #Not a tribe beyond the wall
		is_nomadic = no
		NOT = { culture_group = winter_group }
		NOT = { culture_group = unoccupied_group }	
	}
	
	mercenary = yes

	title = "CAPTAIN"
	foa = "CAPTAIN_FOA"

	# Always exists
	landless = yes
	
	#culture = westerman_sell
	religion = the_seven
	
	# Cannot be vassalized
	independent = yes
	
	mercenary_type = d_merc_hedgeknight
}
d_merc_hedgeknight_6 = {
	color = { 100 50 30 }
	color2 = { 255 255 255 }

	capital = 195 #Silverhall

	# Can only by westerosi rulers
	allow = {
		OR = {
			culture_group = first_men
			culture_group = andal
			religion = the_seven
		}
		NOT = { capital_scope = { region = world_beyond_the_wall } } #Not a tribe beyond the wall
		is_nomadic = no
		NOT = { culture_group = winter_group }
		NOT = { culture_group = unoccupied_group }	
	}
	
	mercenary = yes

	title = "CAPTAIN"
	foa = "CAPTAIN_FOA"

	# Always exists
	landless = yes
	
	#culture = westerman_sell
	religion = the_seven
	
	# Cannot be vassalized
	independent = yes
	
	mercenary_type = d_merc_hedgeknight
}
d_merc_hedgeknight_7 = {
	color = { 100 50 30 }
	color2 = { 255 255 255 }

	capital = 212 #Duskendale

	# Can only by westerosi rulers
	allow = {
		OR = {
			culture_group = first_men
			culture_group = andal
			religion = the_seven
		}
		NOT = { capital_scope = { region = world_beyond_the_wall } } #Not a tribe beyond the wall
		is_nomadic = no
		NOT = { culture_group = winter_group }
		NOT = { culture_group = unoccupied_group }	
	}
	
	mercenary = yes

	title = "CAPTAIN"
	foa = "CAPTAIN_FOA"

	# Always exists
	landless = yes
	
	#culture = valeman_sell
	religion = the_seven
	
	# Cannot be vassalized
	independent = yes
	
	mercenary_type = d_merc_hedgeknight
}
d_merc_hedgeknight_8 = {
	color = { 100 50 30 }
	color2 = { 255 255 255 }

	capital = 253 #Bitterbridge

	# Can only by westerosi rulers
	allow = {
		OR = {
			culture_group = first_men
			culture_group = andal
			religion = the_seven
		}
		NOT = { capital_scope = { region = world_beyond_the_wall } } #Not a tribe beyond the wall
		is_nomadic = no
		NOT = { culture_group = winter_group }
		NOT = { culture_group = unoccupied_group }	
	}
	
	mercenary = yes

	title = "CAPTAIN"
	foa = "CAPTAIN_FOA"

	# Always exists
	landless = yes
	
	#culture = valeman_sell
	religion = the_seven
	
	# Cannot be vassalized
	independent = yes
	
	mercenary_type = d_merc_hedgeknight
}
d_merc_hedgeknight_9 = {
	color = { 100 50 30 }
	color2 = { 255 255 255 }

	capital = 270 #Ashford

	# Can only by westerosi rulers
	allow = {
		OR = {
			culture_group = first_men
			culture_group = andal
			religion = the_seven
		}
		NOT = { capital_scope = { region = world_beyond_the_wall } } #Not a tribe beyond the wall
		is_nomadic = no
		NOT = { culture_group = winter_group }
		NOT = { culture_group = unoccupied_group }	
	}
	
	mercenary = yes

	title = "CAPTAIN"
	foa = "CAPTAIN_FOA"

	# Always exists
	landless = yes
	
	#culture = reachman_sell
	religion = the_seven
	
	# Cannot be vassalized
	independent = yes
	
	mercenary_type = d_merc_hedgeknight
}
d_merc_hedgeknight_10 = {
	color = { 100 50 30 }
	color2 = { 255 255 255 }

	capital = 316 #Stonehelm

	# Can only by westerosi rulers
	allow = {
		OR = {
			culture_group = first_men
			culture_group = andal
			religion = the_seven
		}
		NOT = { capital_scope = { region = world_beyond_the_wall } } #Not a tribe beyond the wall
		is_nomadic = no
		NOT = { culture_group = winter_group }
		NOT = { culture_group = unoccupied_group }	
	}
	
	mercenary = yes

	title = "CAPTAIN"
	foa = "CAPTAIN_FOA"

	# Always exists
	landless = yes
	
	#culture = reachman_sell
	religion = the_seven
	
	# Cannot be vassalized
	independent = yes
	
	mercenary_type = d_merc_hedgeknight
}
d_e_merc_inf_1 = {
	color = { 100 50 30 }
	color2 = { 255 255 255 }

	capital = 663 #Qarth	
	
	allow = {
		NOT = { capital_scope = { region = world_beyond_the_wall } } #Not a tribe beyond the wall
		is_nomadic = no
		NOT = { culture_group = winter_group }
		NOT = { culture_group = unoccupied_group }
	}
	
	mercenary = yes

	title = "CAPTAIN"
	foa = "CAPTAIN_FOA"

	# Always exists
	landless = yes
	
	#culture = qartheen
	religion = qarth_warlocks
		
	# Cannot be vassalized
	independent = yes
	
	mercenary_type = d_merc_inf
}

d_e_merc_inf_2 = {
	color = { 100 50 30 }
	color2 = { 255 255 255 }

	capital = 663 #Qarth

	allow = {
		NOT = { capital_scope = { region = world_beyond_the_wall } } #Not a tribe beyond the wall
		is_nomadic = no
		NOT = { culture_group = winter_group }
		NOT = { culture_group = unoccupied_group }
	}
	
	mercenary = yes

	title = "CAPTAIN"
	foa = "CAPTAIN_FOA"

	# Always exists
	landless = yes
	
	#culture = qartheen
	religion = qarth_warlocks
	
	# Cannot be vassalized
	independent = yes
	
	mercenary_type = d_merc_inf
}

d_e_merc_inf_3 = {
	color = { 100 50 30 }
	color2 = { 255 255 255 }

	capital = 663 #Qarth

	allow = {
		NOT = { capital_scope = { region = world_beyond_the_wall } } #Not a tribe beyond the wall
		is_nomadic = no
		NOT = { culture_group = winter_group }
		NOT = { culture_group = unoccupied_group }
	}
	
	mercenary = yes

	title = "CAPTAIN"
	foa = "CAPTAIN_FOA"

	# Always exists
	landless = yes
	
	#culture = qartheen
	religion = qarth_warlocks
	
	# Cannot be vassalized
	independent = yes
	
	mercenary_type = d_merc_inf
}

d_e_merc_inf_4 = {
	color = { 100 50 30 }
	color2 = { 255 255 255 }

	capital = 727	#Moraq

	allow = {
		NOT = { capital_scope = { region = world_beyond_the_wall } } #Not a tribe beyond the wall
		is_nomadic = no
		NOT = { culture_group = winter_group }
		NOT = { culture_group = unoccupied_group }
	}
	
	mercenary = yes

	title = "CAPTAIN"
	foa = "CAPTAIN_FOA"

	# Always exists
	landless = yes
	
	#culture = moraqi
	religion = stone_cow
	
	# Cannot be vassalized
	independent = yes
	
	mercenary_type = d_merc_inf
}

d_e_merc_inf_5 = {
	color = { 100 50 30 }
	color2 = { 255 255 255 }

	capital = 727	#Moraq

	allow = {
		NOT = { capital_scope = { region = world_beyond_the_wall } } #Not a tribe beyond the wall
		is_nomadic = no
		NOT = { culture_group = winter_group }
		NOT = { culture_group = unoccupied_group }
	}
	
	mercenary = yes

	title = "CAPTAIN"
	foa = "CAPTAIN_FOA"

	# Always exists
	landless = yes
	
	#culture = moraqi
	religion = stone_cow
	
	# Cannot be vassalized
	independent = yes
	
	mercenary_type = d_merc_inf
}

d_e_merc_inf_6 = {
	color = { 100 50 30 }
	color2 = { 255 255 255 }

	capital = 729 #Vahar

	allow = {
		NOT = { capital_scope = { region = world_beyond_the_wall } } #Not a tribe beyond the wall
		is_nomadic = no
		NOT = { culture_group = winter_group }
		NOT = { culture_group = unoccupied_group }
	}
	
	mercenary = yes

	title = "CAPTAIN"
	foa = "CAPTAIN_FOA"

	# Always exists
	landless = yes
	
	#culture = farosi
	religion = stone_cow
	
	# Cannot be vassalized
	independent = yes
	
	mercenary_type = d_merc_inf
}

d_e_merc_inf_7 = {
	color = { 100 50 30 }
	color2 = { 255 255 255 }

	capital = 719 #Faros

	allow = {
		NOT = { capital_scope = { region = world_beyond_the_wall } } #Not a tribe beyond the wall
		is_nomadic = no
		NOT = { culture_group = winter_group }
		NOT = { culture_group = unoccupied_group }
	}
	
	mercenary = yes

	title = "CAPTAIN"
	foa = "CAPTAIN_FOA"

	# Always exists
	landless = yes
	
	#culture = farosi
	religion = stone_cow
	
	# Cannot be vassalized
	independent = yes
	
	mercenary_type = d_merc_inf
}

d_e_merc_inf_8 = {
	color = { 100 50 30 }
	color2 = { 255 255 255 }

	capital = 669 #Asabhad

	allow = {
		NOT = { capital_scope = { region = world_beyond_the_wall } } #Not a tribe beyond the wall
		is_nomadic = no
		NOT = { culture_group = winter_group }
		NOT = { culture_group = unoccupied_group }
	}
	
	mercenary = yes

	title = "CAPTAIN"
	foa = "CAPTAIN_FOA"

	# Always exists
	landless = yes
	
	#culture = asabhadi
	religion = stone_cow
	
	# Cannot be vassalized
	independent = yes
	
	mercenary_type = d_merc_inf
}

d_e_merc_inf_9 = {
	color = { 100 50 30 }
	color2 = { 255 255 255 }

	capital = 728 #Zabhad

	allow = {
		NOT = { capital_scope = { region = world_beyond_the_wall } } #Not a tribe beyond the wall
		is_nomadic = no
		NOT = { culture_group = winter_group }
		NOT = { culture_group = unoccupied_group }
	}
	
	mercenary = yes

	title = "CAPTAIN"
	foa = "CAPTAIN_FOA"

	# Always exists
	landless = yes
	
	#culture = asabhadi
	religion = stone_cow
	
	# Cannot be vassalized
	independent = yes
	
	mercenary_type = d_merc_inf
}

d_e_merc_inf_10 = {
	color = { 100 50 30 }
	color2 = { 255 255 255 }

	capital = 765 #Yin

	allow = {
		NOT = { capital_scope = { region = world_beyond_the_wall } } #Not a tribe beyond the wall
		is_nomadic = no
		NOT = { culture_group = winter_group }
		NOT = { culture_group = unoccupied_group }
	}
	
	mercenary = yes

	title = "CAPTAIN"
	foa = "CAPTAIN_FOA"

	# Always exists
	landless = yes
	
	#culture = yi_ti
	religion = lion_night
	
	# Cannot be vassalized
	independent = yes
	
	mercenary_type = d_merc_inf
}

d_e_merc_inf_11 = {
	color = { 100 50 30 }
	color2 = { 255 255 255 }

	capital = 765 #Yin

	allow = {
		NOT = { capital_scope = { region = world_beyond_the_wall } } #Not a tribe beyond the wall
		is_nomadic = no
		NOT = { culture_group = winter_group }
		NOT = { culture_group = unoccupied_group }
	}
	
	mercenary = yes

	title = "CAPTAIN"
	foa = "CAPTAIN_FOA"

	# Always exists
	landless = yes
	
	#culture = yi_ti
	religion = lion_night
	
	# Cannot be vassalized
	independent = yes
	
	mercenary_type = d_merc_inf
}

d_e_merc_inf_12 = {
	color = { 100 50 30 }
	color2 = { 255 255 255 }

	capital = 770 #Jinqi

	allow = {
		NOT = { capital_scope = { region = world_beyond_the_wall } } #Not a tribe beyond the wall
		is_nomadic = no
		NOT = { culture_group = winter_group }
		NOT = { culture_group = unoccupied_group }
	}
	
	mercenary = yes

	title = "CAPTAIN"
	foa = "CAPTAIN_FOA"

	# Always exists
	landless = yes
	
	#culture = yi_ti
	religion = lion_night
	
	# Cannot be vassalized
	independent = yes
	
	mercenary_type = d_merc_inf
}

d_e_merc_inf_13 = {
	color = { 100 50 30 }
	color2 = { 255 255 255 }

	capital = 790 #Turrani

	allow = {
		NOT = { capital_scope = { region = world_beyond_the_wall } } #Not a tribe beyond the wall
		is_nomadic = no
		NOT = { culture_group = winter_group }
		NOT = { culture_group = unoccupied_group }
	}
	
	mercenary = yes

	title = "CAPTAIN"
	foa = "CAPTAIN_FOA"

	# Always exists
	landless = yes
	
	#culture = yi_ti
	religion = lion_night
	
	# Cannot be vassalized
	independent = yes
	
	mercenary_type = d_merc_inf
}

d_merc_hyrkoonispears_1 = {
	color = { 100 50 30 }
	color2 = { 255 255 255 }

	capital = 674 #Bayasabhad

	allow = {
		NOT = { capital_scope = { region = world_beyond_the_wall } } #Not a tribe beyond the wall
		is_nomadic = no
		NOT = { culture_group = winter_group }
		NOT = { culture_group = unoccupied_group }
	}
	
	mercenary = yes

	title = "CAPTAIN"
	title_female = "CAPTAIN"
	foa = "CAPTAIN_FOA"

	# Always exists
	landless = yes
	
	#culture = hyrkooni
	religion = gods_bone_mountains
	
	# Cannot be vassalized
	independent = yes
	
	mercenary_type = d_merc_dornish
}
d_merc_hyrkoonispears_2 = {
	color = { 100 50 30 }
	color2 = { 255 255 255 }

	capital = 674 #Bayasabhad

	allow = {
		NOT = { capital_scope = { region = world_beyond_the_wall } } #Not a tribe beyond the wall
		is_nomadic = no
		NOT = { culture_group = winter_group }
		NOT = { culture_group = unoccupied_group }
	}
	
	mercenary = yes

	title = "CAPTAIN"
	title_female = "CAPTAIN"
	foa = "CAPTAIN_FOA"

	# Always exists
	landless = yes
	
	#culture = hyrkooni
	religion = gods_bone_mountains
	
	# Cannot be vassalized
	independent = yes
	
	mercenary_type = d_merc_dornish
}
d_merc_hyrkoonispears_3 = {
	color = { 100 50 30 }
	color2 = { 255 255 255 }

	capital = 678 #Samyriana

	allow = {
		NOT = { capital_scope = { region = world_beyond_the_wall } } #Not a tribe beyond the wall
		is_nomadic = no
		NOT = { culture_group = winter_group }
		NOT = { culture_group = unoccupied_group }
	}
	
	mercenary = yes

	title = "CAPTAIN"
	title_female = "CAPTAIN"
	foa = "CAPTAIN_FOA"

	# Always exists
	landless = yes
	
	#culture = dornish_sell
	religion = the_seven
	
	# Cannot be vassalized
	independent = yes
	
	mercenary_type = d_merc_dornish
}
d_merc_hyrkoonispears_4 = {
	color = { 100 50 30 }
	color2 = { 255 255 255 }

	capital = 678 #Samyriana

	allow = {
		NOT = { capital_scope = { region = world_beyond_the_wall } } #Not a tribe beyond the wall
		is_nomadic = no
		NOT = { culture_group = winter_group }
		NOT = { culture_group = unoccupied_group }
	}
	
	mercenary = yes

	title = "CAPTAIN"
	title_female = "CAPTAIN"
	foa = "CAPTAIN_FOA"

	# Always exists
	landless = yes
	
	#culture = hyrkooni
	religion = gods_bone_mountains
	
	# Cannot be vassalized
	independent = yes
	
	mercenary_type = d_merc_dornish
}
d_merc_hyrkoonispears_5 = {
	color = { 100 50 30 }
	color2 = { 255 255 255 }

	capital = 680 #kayakayanaya
	
	allow = {
		NOT = { capital_scope = { region = world_beyond_the_wall } } #Not a tribe beyond the wall
		is_nomadic = no
		NOT = { culture_group = winter_group }
		NOT = { culture_group = unoccupied_group }
	}
	
	mercenary = yes

	title = "CAPTAIN"
	title_female = "CAPTAIN"
	foa = "CAPTAIN_FOA"

	# Always exists
	landless = yes
	
	#culture = hyrkooni
	religion = gods_bone_mountains
	
	# Cannot be vassalized
	independent = yes
	
	mercenary_type = d_merc_dornish
}
d_merc_hyrkoonispears_6 = {
	color = { 100 50 30 }
	color2 = { 255 255 255 }

	capital = 680 #kayakayanaya

	allow = {
		NOT = { capital_scope = { region = world_beyond_the_wall } } #Not a tribe beyond the wall
		is_nomadic = no
		NOT = { culture_group = winter_group }
		NOT = { culture_group = unoccupied_group }
	}
	
	mercenary = yes

	title = "CAPTAIN"
	title_female = "CAPTAIN"
	foa = "CAPTAIN_FOA"

	# Always exists
	landless = yes
	
	#culture = hyrkooni
	religion = gods_bone_mountains
	
	# Cannot be vassalized
	independent = yes
	
	mercenary_type = d_merc_dornish
}
d_giants = {
	color = { 249 249 249 }
	color2 = { 255 215 0 }
	
	#capital = 6  # Shivering Forest

	mercenary = yes
	
	# Hire Trigger
	allow = {
		culture_group = free_folk
		has_character_flag = giants_hired
	}

	# Always exists
	landless = yes
	primary = yes
	
	culture = giant
	religion = beyond_wall_old_gods
	
	mercenary_type = d_giants
}
c_giants = {
	color = { 249 249 249 }
	color2 = { 255 215 0 }
	
	culture = giant
	religion = beyond_wall_old_gods

	# Always exists
	landless = yes
	
}
d_merc_wild_1 = {
	color = { 100 50 30 }
	color2 = { 255 255 255 }

	capital = 12
	
	mercenary = yes

	allow = {
		culture_group = free_folk
	}

	title = "CAPTAIN"
	foa = "CAPTAIN_FOA"

	# Always exists
	landless = yes
	
	culture = wildling
	religion = beyond_wall_old_gods
	
	# Cannot be vassalized
	independent = yes
	
	mercenary_type = d_merc_wild
}

d_merc_wild_2 = {
	color = { 100 50 30 }
	color2 = { 255 255 255 }

	capital = 12
	
	mercenary = yes

	allow = {
		culture_group = free_folk
	}

	title = "CAPTAIN"
	foa = "CAPTAIN_FOA"

	# Always exists
	landless = yes
	
	culture = wildling
	religion = beyond_wall_old_gods
	
	# Cannot be vassalized
	independent = yes
	
	mercenary_type = d_merc_wild
}

d_merc_wild_3 = {
	color = { 100 50 30 }
	color2 = { 255 255 255 }

	capital = 6
	
	mercenary = yes

	allow = {
		culture_group = free_folk	
	}

	title = "CAPTAIN"
	foa = "CAPTAIN_FOA"

	# Always exists
	landless = yes
	
	culture = wildling
	religion = beyond_wall_old_gods
	
	# Cannot be vassalized
	independent = yes
	
	mercenary_type = d_merc_wild
}

d_merc_wild_4 = {
	color = { 100 50 30 }
	color2 = { 255 255 255 }

	capital = 6
	
	mercenary = yes

	allow = {
		culture_group = free_folk
	}

	title = "CAPTAIN"
	foa = "CAPTAIN_FOA"

	# Always exists
	landless = yes
	
	culture = wildling
	religion = beyond_wall_old_gods
	
	# Cannot be vassalized
	independent = yes
	
	mercenary_type = d_merc_wild
}

d_merc_wild_5 = {
	color = { 100 50 30 }
	color2 = { 255 255 255 }

	capital = 5
	
	mercenary = yes

	allow = {
		culture_group = free_folk	
	}

	title = "CAPTAIN"
	foa = "CAPTAIN_FOA"

	# Always exists
	landless = yes
	
	culture = wildling
	religion = beyond_wall_old_gods
	
	# Cannot be vassalized
	independent = yes
	
	mercenary_type = d_merc_wild
}

d_merc_wild_6 = {
	color = { 100 50 30 }
	color2 = { 255 255 255 }

	capital = 5
	
	mercenary = yes

	allow = {
		culture_group = free_folk	
	}

	title = "CAPTAIN"
	foa = "CAPTAIN_FOA"

	# Always exists
	landless = yes
	
	culture = wildling
	religion = beyond_wall_old_gods
	
	# Cannot be vassalized
	independent = yes
	
	mercenary_type = d_merc_wild
}

d_merc_wild_7 = {
	color = { 100 50 30 }
	color2 = { 255 255 255 }

	capital = 8
	
	mercenary = yes

	allow = {
		culture_group = free_folk
	}

	title = "CAPTAIN"
	foa = "CAPTAIN_FOA"

	# Always exists
	landless = yes
	
	culture = wildling
	religion = beyond_wall_old_gods
	
	# Cannot be vassalized
	independent = yes
	
	mercenary_type = d_merc_wild
}

d_merc_wild_8 = {
	color = { 100 50 30 }
	color2 = { 255 255 255 }

	capital = 8
	
	mercenary = yes

	allow = {
		culture_group = free_folk
	}

	title = "CAPTAIN"
	foa = "CAPTAIN_FOA"

	# Always exists
	landless = yes
	
	culture = wildling
	religion = beyond_wall_old_gods
	
	# Cannot be vassalized
	independent = yes
	
	mercenary_type = d_merc_wild
}

d_merc_wild_9 = {
	color = { 100 50 30 }
	color2 = { 255 255 255 }

	capital = 3
	
	mercenary = yes

	allow = {
		culture_group = free_folk
	}

	title = "CAPTAIN"
	foa = "CAPTAIN_FOA"

	# Always exists
	landless = yes
	
	culture = wildling
	religion = beyond_wall_old_gods
	
	# Cannot be vassalized
	independent = yes
	
	mercenary_type = d_merc_wild
}

d_merc_wild_10 = {
	color = { 100 50 30 }
	color2 = { 255 255 255 }

	capital = 3
	
	mercenary = yes

	allow = {
		culture_group = free_folk
	}

	title = "CAPTAIN"
	foa = "CAPTAIN_FOA"

	# Always exists
	landless = yes
	
	culture = wildling
	religion = beyond_wall_old_gods
	
	# Cannot be vassalized
	independent = yes
	
	mercenary_type = d_merc_wild
}
d_merc_fleet_1 = {
	color = { 100 50 30 }
	color2 = { 255 255 255 }

	#capital = 358
	
	allow = {
		NOT = { capital_scope = { region = world_beyond_the_wall } } #Not a tribe beyond the wall
		is_nomadic = no
		NOT = { culture_group = winter_group }
		NOT = { culture_group = unoccupied_group }
		# OR = {
			# ai = no
			# NOT = {
				# OR = {
					# has_landed_title = e_north
					# has_landed_title = k_north
				# }
			# }
		# }
	}
	
	mercenary = yes

	title = "CAPTAIN"
	foa = "CAPTAIN_FOA"

	# Always exists
	landless = yes
	
	culture = lysene
	religion = rhllor
	
	# Cannot be vassalized
	independent = yes
	
	mercenary_type = d_merc_fleet
}

d_merc_fleet_2 = {
	color = { 100 50 30 }
	color2 = { 255 255 255 }

	#capital = 358

	allow = {
		NOT = { capital_scope = { region = world_beyond_the_wall } } #Not a tribe beyond the wall
		is_nomadic = no
		NOT = { culture_group = winter_group }
		NOT = { culture_group = unoccupied_group }
		# OR = {
			# ai = no
			# NOT = {
				# OR = {
					# has_landed_title = e_north
					# has_landed_title = k_north
				# }
			# }
		# }
	}
	
	mercenary = yes

	title = "CAPTAIN"
	foa = "CAPTAIN_FOA"

	# Always exists
	landless = yes
	
	culture = tyroshi
	religion = trios
	
	# Cannot be vassalized
	independent = yes
	
	mercenary_type = d_merc_fleet
}

d_merc_fleet_3 = {
	color = { 100 50 30 }
	color2 = { 255 255 255 }

	#capital = 359

	allow = {
		NOT = { capital_scope = { region = world_beyond_the_wall } } #Not a tribe beyond the wall
		is_nomadic = no
		NOT = { culture_group = winter_group }
		NOT = { culture_group = unoccupied_group }
		# OR = {
			# ai = no
			# NOT = {
				# OR = {
					# has_landed_title = e_north
					# has_landed_title = k_north
				# }
			# }
		# }
	}
	
	mercenary = yes

	title = "CAPTAIN"
	foa = "CAPTAIN_FOA"

	# Always exists
	landless = yes
	
	culture = tyroshi
	religion = trios
	
	# Cannot be vassalized
	independent = yes
	
	mercenary_type = d_merc_fleet
}

d_merc_fleet_4 = {
	color = { 100 50 30 }
	color2 = { 255 255 255 }

	#capital = 363

	allow = {
		NOT = { capital_scope = { region = world_beyond_the_wall } } #Not a tribe beyond the wall
		is_nomadic = no
		NOT = { culture_group = winter_group }
		NOT = { culture_group = unoccupied_group }
		# OR = {
			# ai = no
			# NOT = {
				# OR = {
					# has_landed_title = e_north
					# has_landed_title = k_north
				# }
			# }
		# }
	}
	
	mercenary = yes

	title = "CAPTAIN"
	foa = "CAPTAIN_FOA"

	# Always exists
	landless = yes
	
	culture = lysene
	religion = rhllor
	
	# Cannot be vassalized
	independent = yes
	
	mercenary_type = d_merc_fleet
}

d_merc_fleet_5 = {
	color = { 100 50 30 }
	color2 = { 255 255 255 }

	#capital = 362

	allow = {
		NOT = { capital_scope = { region = world_beyond_the_wall } } #Not a tribe beyond the wall
		is_nomadic = no
		NOT = { culture_group = winter_group }
		NOT = { culture_group = unoccupied_group }
		# OR = {
			# ai = no
			# NOT = {
				# OR = {
					# has_landed_title = e_north
					# has_landed_title = k_north
				# }
			# }
		# }
	}
	
	mercenary = yes

	title = "CAPTAIN"
	foa = "CAPTAIN_FOA"

	# Always exists
	landless = yes
	
	culture = lysene
	religion = rhllor
	
	# Cannot be vassalized
	independent = yes
	
	mercenary_type = d_merc_fleet
}

d_merc_fleet_6 = {
	color = { 100 50 30 }
	color2 = { 255 255 255 }

	#capital = 361

	allow = {
		NOT = { capital_scope = { region = world_beyond_the_wall } } #Not a tribe beyond the wall
		is_nomadic = no
		NOT = { culture_group = winter_group }
		NOT = { culture_group = unoccupied_group }
		# OR = {
			# ai = no
			# NOT = {
				# OR = {
					# has_landed_title = e_north
					# has_landed_title = k_north
				# }
			# }
		# }
	}
	
	mercenary = yes

	title = "CAPTAIN"
	foa = "CAPTAIN_FOA"

	# Always exists
	landless = yes
	
	culture = myrman
	religion = rhllor
	
	# Cannot be vassalized
	independent = yes
	
	mercenary_type = d_merc_fleet
}

d_merc_fleet_7 = {
	color = { 100 50 30 }
	color2 = { 255 255 255 }

	#capital = 362

	allow = {
		NOT = { capital_scope = { region = world_beyond_the_wall } } #Not a tribe beyond the wall
		is_nomadic = no
		NOT = { culture_group = winter_group }
		NOT = { culture_group = unoccupied_group }
		# OR = {
			# ai = no
			# NOT = {
				# OR = {
					# has_landed_title = e_north
					# has_landed_title = k_north
				# }
			# }
		# }
	}
	
	mercenary = yes

	title = "CAPTAIN"
	foa = "CAPTAIN_FOA"

	# Always exists
	landless = yes
	
	culture = myrman
	religion = rhllor
	
	# Cannot be vassalized
	independent = yes
	
	mercenary_type = d_merc_fleet
}

d_merc_fleet_8 = {
	color = { 100 50 30 }
	color2 = { 255 255 255 }

	#capital = 365

	allow = {
		NOT = { capital_scope = { region = world_beyond_the_wall } } #Not a tribe beyond the wall
		is_nomadic = no
		NOT = { culture_group = winter_group }
		NOT = { culture_group = unoccupied_group }
		# OR = {
			# ai = no
			# NOT = {
				# OR = {
					# has_landed_title = e_north
					# has_landed_title = k_north
				# }
			# }
		# }
	}
	
	mercenary = yes

	title = "CAPTAIN"
	foa = "CAPTAIN_FOA"

	# Always exists
	landless = yes
	
	culture = braavosi
	religion = moonsingers
	
	# Cannot be vassalized
	independent = yes
	
	mercenary_type = d_merc_fleet
}

d_merc_fleet_9 = {
	color = { 100 50 30 }
	color2 = { 255 255 255 }

	#capital = 358

	allow = {
		NOT = { capital_scope = { region = world_beyond_the_wall } } #Not a tribe beyond the wall
		is_nomadic = no
		NOT = { culture_group = winter_group }
		NOT = { culture_group = unoccupied_group }
		# OR = {
			# ai = no
			# NOT = {
				# OR = {
					# has_landed_title = e_north
					# has_landed_title = k_north
				# }
			# }
		# }
	}
	
	mercenary = yes

	title = "CAPTAIN"
	foa = "CAPTAIN_FOA"

	# Always exists
	landless = yes
	
	culture = braavosi
	religion = moonsingers
	
	# Cannot be vassalized
	independent = yes
	
	mercenary_type = d_merc_fleet
}

d_merc_fleet_10 = {
	color = { 100 50 30 }
	color2 = { 255 255 255 }

	#capital = 364

	allow = {
		NOT = { capital_scope = { region = world_beyond_the_wall } } #Not a tribe beyond the wall
		is_nomadic = no
		NOT = { culture_group = winter_group }
		NOT = { culture_group = unoccupied_group }
		# OR = {
			# ai = no
			# NOT = {
				# OR = {
					# has_landed_title = e_north
					# has_landed_title = k_north
				# }
			# }
		# }
	}
	
	mercenary = yes

	title = "CAPTAIN"
	foa = "CAPTAIN_FOA"

	# Always exists
	landless = yes
	
	culture = lysene
	religion = rhllor
	
	# Cannot be vassalized
	independent = yes
	
	mercenary_type = d_merc_fleet
}


