# d_jogos_domain = {
#	color = { 243 180 17 }
#	landless = yes
#	capital = 858
#}

e_jkhalasar = {
	color={ 90 84 116 }

	capital = 858
	
	culture = jogos_nhai
	
	nghai = "N'Ghai"
	
	allow = { 
		NOT = { is_nomadic = yes } #Gained via decision
	} 
	
	k_jogos_nhai = {
		color={ 31 39 94 }
		
		culture = jogos_nhai
		
		capital = 858
		
		nghai = "New N'Ghai"
			
		allow = { hidden_tooltip = { NOT = { culture_group = winter_group } } }
		
		d_central_plains = {
			color={ 90 84 116 }
			
			allow = {
				OR = {				
					custom_tooltip = {
						text = TOOLTIPhl_creation_requirement
						hidden_tooltip = { any_demesne_province = { duchy = { title = FROM } } }
					}	
					has_game_rule = { name = hl_creation_requirement value = off }
				}	
			}
			c_halashir = {
				color={ 90 84 116 }
				
				holy_site = jogos_pagan
				holy_site = jogos_pagan_reformed
				holy_site = gods_nghai
				holy_site = gods_nghai_reformed
				
				b_halashir = {
				}
				b_halashir2 = {
				}
				b_halashir3 = {
				}
			}
			c_kazga = {
				color={ 23 37 142 }
				
				b_kazga = {
				}
				b_kazga2 = {
				}
				b_kazga3 = {
				}
			}
			c_qemosor = {
				color={ 7 14 61 }
							
				b_qemosor = {
				}
				b_qemosor2 = {
				}
				b_qemosor3 = {
				}
			}
			c_athzalar = {
				color={ 103 106 123 }
				
				b_athzalar = {
				}
				b_athzalar2 = {
				}
				b_athzalar3 = {
				}
			}
		}
		
		d_west_plains = {
			color={ 70 81 159 }
			
			allow = {
				OR = {				
					custom_tooltip = {
						text = TOOLTIPhl_creation_requirement
						hidden_tooltip = { any_demesne_province = { duchy = { title = FROM } } }
					}	
					has_game_rule = { name = hl_creation_requirement value = off }
				}	
			}
			c_akkovarat = {
				color={ 70 81 159 }
				
				holy_site = jogos_pagan
				holy_site = jogos_pagan_reformed
				
				b_akkovarat = {
				}
				b_akkovarat2 = {
				}
				b_akkovarat3 = {
				}
			}
			c_chafaan = {
				color={ 31 39 94 }
				
				b_chafaan = {
				}
				b_chafaan2 = {
				}
				b_chafaan3 = {
				}
			}
			c_e_steel_road = {
				color={ 90 84 116 }
				
				b_e_steel_road = {
				}
				b_e_steel_road2 = {
				}
				b_e_steel_road3 = {
				}
			}
		}
		
		d_north_plains = {
			color={ 7 14 61 }
			
			nghai = "North N'Ghai"
			
			allow = {
				OR = {				
					custom_tooltip = {
						text = TOOLTIPhl_creation_requirement
						hidden_tooltip = { any_demesne_province = { duchy = { title = FROM } } }
					}	
					has_game_rule = { name = hl_creation_requirement value = off }
				}	
			}
			c_leviathan_sound = {
				color={ 7 14 61 }
				
				holy_site = jogos_pagan
				holy_site = jogos_pagan_reformed
				
				b_leviathan_sound = {
				}
				b_leviathan_sound2 = {
				}
				b_leviathan_sound3 = {
				}
			}		
			c_affazhat = {
				color={ 23 37 142 }
				
				b_affazhat = {
				}
				b_affazhat2 = {
				}
				b_affazhat3 = {
				}
			}
			c_embonhor = {
				color={ 103 106 123 }
				
				b_embonhor = {
				}
				b_embonhor2 = {
				}
				b_embonhor3 = {
				}
			}
			c_ithkoil = {
				color={ 70 81 159 }
				
				b_ithkoil = {
				}
				b_ithkoil2 = {
				}
				b_ithkoil3 = {
				}
			}
		}
		
		d_east_plains = {
			color={ 31 39 94 }
			
			nghai = "South N'Ghai"
			
			allow = {
				OR = {				
					custom_tooltip = {
						text = TOOLTIPhl_creation_requirement
						hidden_tooltip = { any_demesne_province = { duchy = { title = FROM } } }
					}	
					has_game_rule = { name = hl_creation_requirement value = off }
				}	
			}
			c_drekat = {
				color={ 31 39 94 }
				
				holy_site = jogos_pagan
				holy_site = jogos_pagan_reformed
				holy_site = gods_nghai
				holy_site = gods_nghai_reformed
				
				b_drekat = {
				}
				b_drekat2 = {
				}
				b_drekat3 = {
				}
			}
			c_bleeding_shore = {
				color={ 90 84 116 }
							
				b_bleeding_shore = {
				}
				b_bleeding_shore2 = {
				}
				b_bleeding_shore3 = {
				}
			}
			c_chomokh = {
				color={ 7 14 61 }
							
				b_chomokh = {
				}
				b_chomokh2 = {
				}
				b_chomokh3 = {
				}
			}
			c_feshith = {
				color={ 23 37 142 }
							
				b_feshith = {
				}
				b_feshith2 = {
				}
				b_feshith3 = {
				}
			}
		}
		d_south_plains = {
			color={ 103 106 123 }
			
			allow = {
				OR = {				
					custom_tooltip = {
						text = TOOLTIPhl_creation_requirement
						hidden_tooltip = { any_demesne_province = { duchy = { title = FROM } } }
					}	
					has_game_rule = { name = hl_creation_requirement value = off }
				}	
			}
			c_lanqoyi = {
				color={ 103 106 123 }
					
				b_lanqoyi = {
				}
				b_lanqoyi2 = {
				}
				b_lanqoyi3 = {
				}
			}
			c_moskat = {
				color={ 70 81 159 }
				
				b_moskat = {
				}
				b_moskat2 = {
				}
				b_moskat3 = {
				}
			}
			c_nesolat = {
				color={ 31 39 94 }
				
				b_nesolat = {
				}
				b_nesolat2 = {
				}
				b_nesolat3 = {
				}
			}
		}
	}

	k_jhogwin = {
		color = { 50 14 8 }

		capital = 688
		
		allow = { hidden_tooltip = { NOT = { culture_group = winter_group } } }
		
		d_jhogwin = {
			color = { 83 37 30 }
			
			allow = {
				OR = {				
					custom_tooltip = {
						text = TOOLTIPhl_creation_requirement
						hidden_tooltip = { any_demesne_province = { duchy = { title = FROM } } }
					}	
					has_game_rule = { name = hl_creation_requirement value = off }
				}	
			}
			c_jhogur = {
				color = { 83 37 30 }
								
				b_jhogur = {
				}
				b_jhogur2 = {
				}
				b_jhogur3 = {
				}
			}
			c_asthaor = {
				color = { 97 86 84 }
							
				b_asthaor = {
				}
				b_asthaor2 = {
				}
				b_asthaor3 = {
				}
			}
		}
		d_howling_hills = {
			color = { 95 46 38 }
			
			allow = {
				OR = {				
					custom_tooltip = {
						text = TOOLTIPhl_creation_requirement
						hidden_tooltip = { any_demesne_province = { duchy = { title = FROM } } }
					}	
					has_game_rule = { name = hl_creation_requirement value = off }
				}	
			}
				
			c_howling_point = {
				color = { 95 46 38 }
			
				b_howling_point = {
				}
				b_howling_point2 = {
				}
				b_howling_point3 = {
				}
			}
			c_howling_bay = {
				color = { 138 110 106 }
				
				b_howling_bay = {
				}
				b_howling_bay2 = {
				}
				b_howling_bay3 = {
				}
			}
			c_howling_hills = {
				color = { 50 14 8 }
				
				holy_site = moonsingers
				holy_site = moonsingers_reformed
				
				b_howling_hills = {
				}
				b_howling_hills2 = {
				}
				b_howling_hills3 = {
				}
			}
		}
	}	
}

# k_jkhalasar_1 = {
	# color = { 255 150 0 }
	# color2 = { 255 215 0 }
# }
# k_jkhalasar_2 = {
	# color = { 195 120 60 }
	# color2 = { 255 215 0 }
# }
# k_jkhalasar_3 = {
	# color = { 225 110 30 }
	# color2 = { 255 215 0 }
# }
# d_jkha_1 = {
	# color = { 77 188 169 }
	# color2 = { 255 215 0 }
# }
# d_jkha_2 = {
	# color = { 53 71 140 }
	# color2 = { 255 215 0 }
# }
# d_jkha_3 = {
	# color = { 128 166 86 }
	# color2 = { 255 215 0 }
# }
# d_jkha_4 = {
	# color = { 218 110 71 }
	# color2 = { 255 215 0 }
# }
# d_jkha_5 = {
	# color = { 36 179 216 }
	# color2 = { 255 215 0 }
# }
# d_jkha_6 = {
	# color = { 43 97 226 }
	# color2 = { 255 215 0 }
# }
# d_jkha_7 = {
	# color = { 18 195 170 }
	# color2 = { 255 215 0 }
# }
# d_jkha_8 = {
	# color = { 149 67 169 }
	# color2 = { 255 215 0 }
# }
# d_jkha_9 = {
	# color = { 214 43 34 }
	# color2 = { 255 215 0 }
# }
# d_jkha_10 = {
	# color = { 213 123 21 }
	# color2 = { 255 215 0 }
# }