7000.1.1={
	liege = d_gogossos
	holding_dynasty = 723354
}
7880.1.1 = { holder=100354 } # Orys (nc)
7903.1.1 = { holder=101354 } # Vogarro (nc)
7910.1.1 = { holder=104354 } # Orys (nc)

7950.1.1 = { holder=0 } # Red Death




