#House Sweet
6000.1.1 = { 
	liege="c_stonedance"
}
7835.1.1={holder=361470}
7885.1.1={holder=351470}
7910.1.1={holder=341470}
7935.1.1={holder=331470}
7960.1.1={holder=321470}
7985.1.1={holder=311470}
8010.1.1={
	holder=211470 #Godry (nc)
}
8058.1.1 = { holder=221470 } #Rayford (nc)
8083.1.1 = { holder=231470 } #Guncer (nc)
8102.1.1 = { holder=241470 } #Monford (nc)
8123.1.1 = { holder=251470 } #Addam (nc)
8148.1.1 = { holder=261470 } #Hugh (nc)
8201.1.1 = { holder=301470 } #Derrick (nc)
8221.1.1 = { holder=111470 } #Maric (nc)
8250.1.1 = { holder=101470 } #Gwayne (nc)
8292.1.1 = { 
	holder=1001470 #Symon Sweet (semi-canon)
}
