#barony under Three Towers
3.1.1={
	liege="c_threetowers"
}
#House Woodwright
7840.1.1={holder=23239}
7890.1.1={holder=22239}
7915.1.1={holder=21239}
7940.1.1={holder=20239}
7965.1.1={holder=2239}
7991.1.1 = { holder=3239 }	#Unwin (nc)
8007.1.1 = { holder=4239 }	#Elyas (nc)
8051.1.1 = { holder=5239 }	#Normund (nc)
8064.1.1 = { holder=6239 }	#Leo (nc)
8102.1.1 = { holder=9239 }	#Omer (nc)
8132.1.1 = { holder=10239 }	#Lorent (nc)
8156.1.1 = { holder=11239 }	#Jason (nc)
8201.1.1 = { holder=13239 } #Orbert (nc)
8225.1.1 = { holder=15239 } #Colin (nc)
8251.1.1 = { holder=16239 } #Lyman (nc)
8283.1.1 = { holder=239 } 	#Waldon (nc)