#barony under Paps
3.1.1={ liege="c_the_paps" }
7830.1.1 = { holder=32174836 }
7881.1.1 = { holder=31174836 }
7921.1.1 = { holder=30174836 }
7936.1.1 = { holder=29174836 }
7965.1.1 = { holder=28174836 }
8000.1.1 = { holder=27174836 }
8024.1.1 = { holder=17174836 } # Oswell Woodhull (nc)
8044.1.1 = { holder=18174836 } # Gawen Woodhull (nc)
8057.1.1 = { holder=19174836 } # Vardis Woodhull (nc)
8076.1.1 = { holder=20174836 } # Gormon Woodhull (nc)
8120.1.1 = { holder=21174836 } # Morgan Woodhull (nc)
8146.1.1 = { holder=23174836 } # Arnold Woodhull (nc)
8181.1.1 = { holder=24174836 } # Malcolm Woodhull (nc)
8184.1.1 = { holder=25174836 } # Oswell Woodhull (nc)
8225.1.1 = { holder=26174836 } # Malcolm Woodhull (nc)
8252.1.1 = { holder=174836 } # Ossifer Woodhull (nc)
8283.1.1 = { holder=11174836 } # Ossifer Woodhull (nc)
8295.1.1 = { holder=12174836 } # Mandon Woodhull (nc)