900.1.1={ 
	liege="k_tyrosh"
	holding_dynasty = 300024 # Zokan
}
7855.1.1 = { holder=344300024 } # Syrio (nc)
7898.1.1 = { holder=343300024 } # Izembaro (nc)
7919.1.1 = { holder=342300024 } # Groleo (nc)
7935.1.1 = { holder=341300024 } # Roro (nc)
7944.1.1 = { holder=340300024 } # Luco (nc)
7961.1.1 = { holder=250300024 } # Lotho (nc)

7985.1.1 = { holder=150300024 } # Myrmello (nc)
8028.1.1 = { holder=100300024 } # Illyrio (nc)
8053.1.1 = { holder=102300024 } # Tycho (nc)
8065.1.1 = { holder=105300024 } # Collio (nc)
8111.1.1 = { holder=109300024 } # Ordello (nc)
8146.1.1 = { holder=113300024 } # Cossoma (nc)
8185.1.1 = { holder=122300024 } # Oro (nc)
8203.1.1 = { holder=123300024 } # Moreo (nc)
8225.1.1 = { holder=128300024 } # Tycho (nc)
# 8259.1.1={ liege="d_tyrosh" } #Ninepenny king
# 8259.12.31 = { liege="k_tyrosh" }
8270.1.1 = { holder=130300024 } # Gyloro (nc)
8278.1.1 = { holder=131300024 } # Syrio (nc)




