#House Fregar
7600.1.1={
	liege="k_braavos"
}
7863.1.1 = { holder=344300547 } # Jorio (nc)
7884.1.1 = { holder=343300547 } # Varro (nc)
7925.1.1 = { holder=342300547 } # Luco (nc)
7947.1.1 = { holder=341300547 } # Orbelo (nc)
7969.1.1 = { holder=340300547 } # Varro (nc)

7994.1.1 = { holder=1100547 } # Izembaro (nc)
8026.1.1 = { holder=1000547 } # Zafir (nc)
8045.1.1 = { holder=900547 } # Moredo (nc)
8089.1.1 = { holder=800547 } # Roro (nc)
8102.1.1 = { holder=700547 } # Luco (nc)
8114.1.1 = { holder=600547 } # Beqqo (nc)
8148.1.1 = { holder=500547 } # Syrio (nc)
8183.1.1 = { holder=400547 } # Qarro (nc)
8196.1.1 = { holder=300547 } # Brusco (nc)
8213.1.1 = { holder=200547 } # Tycho (nc)
8233.1.1 = { holder=100547 } # Mero (nc)
8271.1.1 = {
	holder=600000051 # Tormo Fregar (C)
}

