6000.1.1={
	liege="e_vale"
	law = succ_primogeniture
}
7834.1.1 = { holder=4174823 }
7868.1.1 = { holder=5174823 }
7915.1.1 = { holder=6174823 }
7934.1.1 = { holder=7174823 }
7967.1.1 = { holder=8174823 }
7984.1.1 = { holder=9174823 } # Jaime Crayne (nc)
7999.1.1={ 
	liege="k_vale"
}
8002.1.1 = { holder=17174823 } # Corwyn Crayne (nc)
8042.1.1 = { holder=18174823 } # Clement Crayne (nc)
8087.1.1 = { holder=21174823 } # Colemon Crayne (nc)
8141.1.1 = { holder=22174823 } # Symond Crayne (nc)
8166.1.1 = { holder=23174823 } # Clement Crayne (nc)
8201.1.1 = { holder=24174823 } # Symond Crayne (nc)
8220.1.1 = { holder=25174823 } # Corwyn Crayne (nc)
8244.1.1 = { holder=10174823 } # Osmund Crayne (nc)
8282.1.1 = { holder=11174823 } # Lucifer Crayne (nc)