#House Rannovar
600.1.1={
	liege="k_volantis"
}
7877.1.1 = { holder=34469143 } # Darios (nc)
7898.1.1 = { holder=34369143 } # Darios (nc)
7910.1.1 = { holder=34269143 } # Hoqorro (nc)
7934.1.1 = { holder=34169143 } # Caryos (nc)
7992.1.1 = { holder=34069143 } # Lysar (nc)

7995.1.1 = { holder=100069143 } # Rolloquo (nc)
8031.1.1 = { holder=100169143 } # Yorko (nc)
8032.1.1 = { holder=100369143 } # Colloquo (nc)
8077.1.1 = { holder=100569143 } # Malaquo (nc)
8094.1.1 = { holder=100969143 } # Doniphos (nc)
8099.1.1 = { holder=101169143 } # Vogarro (nc)
8135.1.1 = { holder=101269143 } # Ordello (nc)
8184.1.1 = { holder=101969143 } # Methyso (nc)
8203.1.1 = { holder=102169143 } # Benerro (nc)
8214.1.1 = { holder=102369143 } # Meralyn (nc)
8228.1.1 = { holder=102469143 } # Allaquo (nc)
8244.1.1 = { holder=102769143 } # Benerro (nc)
8287.1.1 = { holder=103369143 } # Vysarro (nc)
