1.1.1={
liege = k_northclansTK
law = succ_primogeniture
}
2963.1.1={
	holder = 1040126 #
}	
3010.1.1 = {
	holder = 0
}
6000.1.1={
	liege="e_north"
	law = succ_primogeniture
}
6210.1.1={
	holder=1000084
}
6263.1.1={
	holder=0
}
7821.1.1={
    holder=1010084
}
7876.1.1={
    holder=1001084
}
7900.1.1={
    holder=1005084
}	
7935.1.1={
    holder=1003084
}	
7952.1.1={
	holder=17084
}
7960.1.1={
	holder=7075
}
7990.1.1={
	holder=8075
}
7999.1.1={
	liege="k_north"
}
8018.1.1={
	holder=9075
}
8052.1.1={
	holder=10075
}
8098.1.1={
	holder=12075
}
8135.1.1={
	holder=13075
}
8144.1.1={
	holder=14075
}
8179.1.1={
	holder=15075
}
8228.1.1={
	holder=17075
}
8272.1.1={
	holder=2075
}
