#House Luxho
7800.1.1 = {
	liege=d_the_three_exiles
	law = succ_seniority
	law = cognatic_succession
}
7866.1.1 = { holder=340304007 } # Tal (nc)
7875.1.1 = { holder=341304007 } # Xhal (nc)
7878.1.1 = { holder=342304007 } # Quanda (nc)
7926.1.1 = { holder=343304007 } # Tal (nc)
7938.1.1 = { holder=344304007 } # Tatenda (nc)
7973.1.1 = { holder=100304007 } 
8012.1.1 = { holder=102304007 } 
8032.1.1 = { holder=106304007 } 
8049.1.1 = { holder=108304007 } 
8121.1.1 = { holder=113304007 } 
8165.1.1 = { holder=119304007 } 
8172.1.1 = { holder=121304007 } 
8224.1.1 = { holder=124304007 } 
8235.1.1 = { holder=128304007 } 
8251.1.1 = { holder=129304007 } 
8254.1.1 = { holder=131304007 } 
8291.1.1 = { holder=138304007 } 

