7844.1.1 = { holder=340559139 } # Craster (nc)
7869.1.1 = { holder=341559139 } # Yoren (nc)
7899.1.1 = { holder=344559139 } # Jeor (nc)
7954.1.1 = { holder=345559139 } # Harra (nc)
7993.1.1 = { holder=10559139 } # Torghen (nc)
8003.1.1 = { holder=11559139 } # Karlon (nc)
8033.1.1 = { holder=13559139 } # Dryn (nc)
8035.1.1 = { holder=17559139 } # Gerrick (nc)
8062.1.1 = { holder=22559139 } # Harlon (nc)
8085.1.1 = { holder=23559139 } # Mors (nc)
8140.1.1 = { holder=24559139 } # Cayn (nc)
8154.1.1 = { holder=26559139 } # Quort (nc)
8168.1.1 = { holder=28559139 } # Gerrick (nc)
8210.1.1 = { holder=29559139 } # Mikken (nc)
8213.1.1={
	liege="k_beyond_wall"
}
8221.1.1 = { holder=30559139 } # Byam (nc)
8226.9.9={
	liege="0"
}
8264.1.1 = { holder=33559139 } # Raymun (nc)
8275.1.1 = { holder=34559139 } # Alfyn (nc)
#8282.1.1 = { holder=37559139 } # Ygon (nc)


8282.1.1={
	holder=157000
}
8298.1.1={
	liege="k_beyond_wall"
	holder=157000
}
8300.2.10={
	holder=157015
}