600.1.1={
	law = slavery_2
	law = succ_turkish_succession
	law = agnatic_succession
}
7600.1.1 = { 
	liege = d_gogossos
}
7950.1.1 = {
	liege = 0
}
8125.1.1 = {
	liege = k_basilisk_isles
}
8155.1.1 = {
	liege = 0
}
8300.1.1 = {
	liege = k_basilisk_isles
}