#House Tomburu
7800.1.1 = { 
	law = succ_seniority
	law = cognatic_succession
} 
7860.1.1 = { holder=340304032 } # Abrafo (nc)
7881.1.1 = { holder=341304032 } # Simbaya (nc)
7888.1.1 = { holder=342304032 } # Qaro (nc)
7934.1.1 = { holder=343304032 } # Udo (nc)
7953.1.1 = { holder=344304032 } # Onyaya (nc)
7968.1.1 = { holder=100304032 } # Tapuhuru (nc)
7995.1.1 = { holder=103304032 } # Paro (nc)
8016.1.1 = { holder=104304032 } # Simbhar (nc)
8041.1.1 = { holder=107304032 } # Lusaxharo (nc)
8068.1.1 = { holder=111304032 } # Quhuru (nc)
8094.1.1 = { holder=113304032 } # Makhan (nc)
8122.1.1 = { holder=121304032 } # Quhuru (nc)
8142.1.1 = { holder=122304032 } # Udo (nc)
8155.1.1 = { holder=125304032 } # Jalataya (nc)
8189.1.1 = { holder=129304032 } # Isodo (nc)
8221.1.1 = { holder=130304032 } # Isodo (nc)
8229.1.1 = { holder=131304032 } # Jalabhar (nc)
8259.1.1 = { holder=137304032 } # Jalabhar (nc)
8295.1.1 = { holder=141304032 } # Gatubhar (nc)


