600.1.1={
	liege="d_xin"
}
7869.1.1 = { holder=34469105 } # Lo (nc)
7883.1.1 = { holder=34369105 } # Zi (nc)
7921.1.1 = { holder=34269105 } # An (nc)
7948.1.1 = { holder=34169105 } # Xho (nc)
7988.1.1 = { holder=34069105 } # Nar (nc)

7997.1.1 = { holder=10069105 } # Thinh (nc)
8029.1.1 = { holder=10169105 } # Mukhtar (nc)
8046.1.1 = { holder=10669105 } # Ubayd (nc)
8059.1.1 = { holder=10769105 } # Muzaffaraddin (nc)
8090.1.1 = { holder=11269105 } # Youkhanna (nc)
8098.1.1 = { holder=11469105 } # Idris (nc)
8125.1.1 = { holder=11569105 } # Faruk (nc)
8168.1.1 = { holder=11969105 } # Nizam (nc)
8177.1.1 = { holder=12469105 } # Bakr (nc)
8221.1.1 = { holder=12569105 } # Qadir (nc)
8233.1.1 = { holder=12969105 } # Yahya (nc)
8292.1.1 = { holder=13169105 } # Yusuf (nc)



