
6000.1.1={
	liege="d_bayofclaws"
	law = succ_primogeniture
}
6451.1.1={
	holder=501138 #Florian I
}
6488.1.1 = {
	holder=502138 #Florian II
}
6505.1.1 = {
	holder=503138 #Florian III
}
6527.1.1 = {
	holder=504138 #Florian IV
}
6538.1.1 = {
	holder=505138 #Florian V
}
6540.1.1 = {
	holder=0
}
7800.1.1={
	holder=514138
}
7858.1.1={
	holder=513138
}
7890.1.1={
	holder=512138
}
7902.1.1={
	holder=511138
}
7926.1.1={
	holder=510138
}
7950.1.1={
	holder=509138
}
7976.1.1 = {
	holder=250138
}
7985.1.1={
	holder=23138
}
7998.2.1 = {
	holder=24138
}
# 7998.2.1={
	# liege="k_riverlands"
# }
8015.1.1 = {
	holder=22138
}
8039.1.1 = {
	holder=21138
}
8055.1.1 = {
	holder=88000357 #Jirelle Mooton
}
8059.2.1={
	holder=20138
}
8104.1.1={
	holder=19138 #Jonah Mooton
}
8121.1.1={
    holder=560138 # Walys Mooton (C)
}
8129.5.1={
   holder=570138 # Manfryd Mooton (C)
}  
8134.5.8 = {
	holder=18138 # Gaston Mooton
}
8167.1.1={
	holder=17138 # Bryar Mooton
}
8176.1.1={
	holder=14138 # Edmure Mooton
}
8240.1.1={
	holder=12138
}
8263.1.1={
	holder=11138
}
8275.1.1={
	holder=138
}
8283.6.1={
	liege="k_riverlands"
}
8292.4.2 = {
    holder=1138 # William Mooton (C)
}

8299.11.12 = {
	liege="d_bayofclaws"	#Lancel gets Darry
}
