600.1.1={
	liege="d_myr"
}
7875.1.1 = { holder=344300700 } # Garridos Drahar (nc)
7902.1.1 = { holder=343300525 } # Vyrano Trellos (nc)
7919.1.1 = { holder=342300534 } # Aryos Uteuran (nc)
7931.1.1 = { holder=342300700 } # Kasporio Drahar (nc)
7932.1.1 = { holder=342300525 } # Yaran Trellos (nc)
7944.1.1 = { holder=341174355 } # Myrmello Rhegan (nc)
7949.1.1 = { holder=341300516 } # Tregys Lornel (nc)
7953.1.1 = { holder=341300525 } # Bylan Trellos (nc)
7966.1.1 = { holder=340300700 } # Draqoros Drahar (nc)

7977.1.1 = { holder=150300516 } # Belequo Lornel (nc)
8023.1.1 = { holder=100300525 } # Gylono Trellos (nc)
8042.1.1 = { holder=101300525 } # Pynto Trellos (nc)
8082.1.1 = { holder=102300700 } # Noho Drahar (nc)
8084.1.1 = { holder=103300700 } # Craghas Crabfeeder Drahar (C)
8108.11.11 = { holder=106174355 } # Terro Rhegan (nc)
8135.1.1 = { holder=113300534 } # Daario Uteuran (nc)
8147.1.1 = { holder=108300700 } # Ezzelyno Drahar (nc)
8166.1.1 = { holder=110300525 } # Ordello Trellos (nc)
8196.1.1 = { holder=117300534 } # Ferrego Uteuran (nc)
8207.1.1 = { holder=121300534 } # Pynto Uteuran (nc)
8235.1.1 = { holder=121174355 } # Beqqo Rhegan (nc)
8258.1.1 = { holder=120300525 } # Gyloro Trellos (nc)
8285.1.1 = { holder=125300700 } # Roro Drahar (nc)
8293.1.1 = { holder=121300525 } # Terro Trellos (nc)