#House Woolfield
6000.1.1={
	liege="d_whiteharbor"
	law = succ_primogeniture
}
7844.1.1 = { holder=344082 } # Wynton (nc)
7856.1.1 = { holder=343082 } # Wendel (nc)
7892.1.1 = { holder=342082 } # Vayon (nc)
7921.1.1 = { holder=341082 } # Jon (nc)
7946.1.1 = { holder=340082 } # Eddard (nc)

7965.1.1 = { holder=22082 } # Wyman (nc)
8012.1.1 = { holder=15082 } # Brandon (nc)
8024.1.1 = { holder=14082 } # Harmond (nc)
8053.1.1 = { holder=12082 } # Garth (nc)
8070.1.1 = { holder=11082 } # Ramsay (nc)
8096.1.1 = { holder=10082 } # Damon (nc)
8141.1.1 = { holder=9082 } # Merion (nc)
8184.1.1 = { holder=8082 } # Gery (nc)
8192.1.1 = { holder=7082 } # Torghen (nc)
8200.1.1 = { holder=6082 } # Larence (nc)
8219.1.1 = { holder=5082 } # Vayon (nc)
8257.1.1 = { holder=3082 } # Calon (nc)
8269.1.1 = {
	holder=82
}