#NOTE: The holder of this title has the House Varner dynasty tracker set in roberts_rebellion_events
#House Varner
900.1.1={ law=succ_primogeniture law=cognatic_succession
	liege="e_reach"
}
7860.1.1 = { holder=6034258 } # Willam (nc)
7866.1.1 = { holder=6033258 } # Victor (nc)
7904.1.1 = { holder=6032258 } # Leo (nc)
7947.1.1 = { holder=6031258 } # Karyl (nc)
7966.1.1 = { holder=6030258 } # Victor (nc)

7975.1.1 = { holder=6002258 } # Vortimer (nc)
7998.6.6={
	liege="k_reach"
}
8004.1.1 = { holder=6000258 } # Alyn (nc)
8019.1.1 = { holder=6001258 } # Hosman (nc)
8064.1.1 = { holder=6003258 } # Dareon (nc)
8071.1.1 = { holder=6005258 } # Leo (nc)
8108.1.1 = { holder=6007258 } # Byren (nc)
8111.1.1 = { holder=6010258 } # Olymer (nc)
8155.1.1 = { holder=6016258 } # Martyn (nc)
8179.1.1 = { holder=6017258 } # Eustace (nc)
8183.1.1 = { holder=6018258 } # Runceford (nc)
8231.1.1 = { holder=6020258 } # Lucas (nc)
8246.1.1 = { holder=6022258 } # Lucas (nc)
8280.1.1={ holder=258 }	#Titus (nc)

8290.1.1 = {
	holder=1258 #Lord Steffon Varner (C)
}


