#House Juthani
5214.1.1={
	liege="d_sarys"
	law = succ_primogeniture
}
7809.1.1 = { holder=10056819 } # Etash (nc)
7834.1.1 = { holder=10156819 } # Balavant (nc)
7851.1.1 = { holder=10356819 } # Manish (nc)
7876.1.1 = { holder=10856819 } # Balavant (nc)
7909.1.1 = { holder=11256819 } # Nitish (nc)
7945.1.1 = { holder=11656819 } # Lakshan (nc)
7969.1.1 = { holder=12056819 } # Ranak (nc)

7976.1.1 = { 
	holder=100600217  # Rogo (nc)
	liege = d_mardosh
}
8010.1.1 = { holder=102600217 } # Ogo (nc)
8033.1.1 = { holder=107600217 } # Rhogoro (nc)
8070.1.1 = { holder=111600217 } # Mosko (nc)
8089.1.1 = { holder=112600217 } # Temmo (nc)
8093.1.1 = { holder=116600217 } # Cohollo (nc)
8121.1.1 = { holder=121600217 } # Pono (nc)
8125.1.1 = { holder=123600217 } # Zerqollo (nc)
8164.1.1 = { holder=127600217 } # Hezzo (nc)
8166.1.1 = { holder=131600217 } # Moro (nc)
8187.1.1 = { holder=135600217 } # Remekko (nc)
8237.1.1 = { holder=139600217 } # Rhogoro (nc)
8265.1.1 = { holder=142600217 } # Jasso (nc)
8294.1.1 = { holder=147600217 } # Remekko (nc)