6000.1.1={
	law = succ_primogeniture
}
7600.1.1={
	liege="d_eastweald"
}
7830.1.1 = { holder=340801047 } # Hugo (nc)
7879.1.1 = { holder=105801047 } # Marwyn (nc)
7912.1.1 = { holder=104801047 } # Benedar (nc)
7931.1.1 = { holder=103801047 } # Bryan (nc)
7956.1.1 = { holder=100801047 } # Eon (nc)
7980.1.1 = { holder=102801047 } # Eustace (nc)
8031.1.1 = { holder=106801047 } # Osgood (nc)
8052.1.1 = { holder=108801047 } # Artys (nc)
8086.1.1 = { holder=112801047 } # Serwyn (nc)
8120.1.1 = { holder=118801047 } # Bryen (nc)
8144.1.1 = { holder=123801047 } # Robar (nc)
8201.1.1 = { holder=125801047 } # Florian (nc)
8209.1.1 = { holder=128801047 } # Byron (nc)
8244.1.1 = { holder=134801047 } # Rolley (nc)
8269.1.1 = { holder=137801047 } # Petyr (nc)