#House Rulloros
600.1.1={
	liege="d_valysar"
}
7869.1.1 = { holder=344305613 } # Larazys (nc)
7884.1.1 = { holder=343305613 } # Horio (nc)
7903.1.1 = { holder=342305613 } # Caezar (nc)
7933.1.1 = { holder=341305613 } # Zorapho (nc)
7958.1.1 = { holder=340305613 } # Yasporio (nc)

7975.1.1 = { holder=100305613 } # Colloquo (nc)
8007.1.1 = { holder=101305613 } # Moqorro (nc)
8043.1.1 = { holder=104305613 } # Qarro (nc)
8065.1.1 = { holder=106305613 } # Vogarro (nc)
8081.1.1 = { holder=111305613 } # Alios (nc)
8099.1.1 = { holder=112305613 } # Belicho (nc)
8110.1.1 = { holder=113305613 } # Meralyn (nc)
8145.1.1 = { holder=117305613 } # Belicho (nc)
8147.1.1 = { holder=119305613 } # Bolquello (nc)
8179.1.1 = { holder=121305613 } # Rolloquo (nc)
8215.1.1 = { holder=124305613 } # Meralyn (nc)
8239.1.1 = { holder=127305613 } # Methyso (nc)
8266.1.1 = { holder=132305613 } # Orbelo (nc)
