#House Martell
7300.1.1={
	liege="e_dorne"
	law = succ_primogeniture
	law = true_cognatic_succession
	holder=2100001 #Mors I (C)
}

7309.1.1 = {

	holder = 2000001 #Nymeria

}

7336.1.1 = {
 	holder=6055001
} # Nymeria II (nc)
7358.1.1 = { 
	holder=6056001
} # Mors II (C)

7390.1.1 = { 
	holder=60570001
} # Malon (nc)
7418.1.1 = { holder=60840001} # Olyvar (nc)
7445.1.1 = { holder=6058001 } # Garin (nc)
7470.1.1 = { holder=6059001 } # Nymeria (nc)
7496.1.1 = { holder=6060001 } # Mors (nc)
7504.1.1 = { holder=6061001 } # Chroyana (nc)
7532.1.1 = { holder=6062001 } # Anders (nc)
7567.1.1 = { holder=6064001 } # Arron (nc)
7596.1.1 = { holder=6065001 } # Dorea (nc)
7598.1.1 = { holder=6066001 } # Nymella (nc)
7635.1.1 = { holder=6069001 } # Theodan (nc)
7664.1.1 = { holder=6070001 } # Arron (nc)
7712.1.1 = { holder=6071001 } # Nymerios (nc)
7748.1.1 = { holder=6073001 } # Oberyn (nc)
7763.1.1 = { holder=6074001 } # Nyeron (nc)
7779.1.1 = { holder=6075001 } # Nysterica (nc)
7790.1.1 = { holder=6076001 } # Doran (nc)
7835.1.1 = { holder=6077001 } # Nymeria (nc)
7875.1.1 = { holder=6079001 } # Perros (nc)
7895.1.1 = { holder=6082001 } # Trystane (nc)
7920.1.1 = { holder=6083001 } # Ryon (nc)
7940.1.1 = { holder=22001 } # Mariya (C)
8013.6.1 = { holder=21001 } # Nymor (C)
8015.1.1 = {
holder=19001 #Deria (C)
}
8040.1.1 = {
holder=18001 #Lewyn
}

8069.1.1 = {
holder=17001 #Mors
}

8083.1.1={
holder=36001 #Morion(C)
}
8083.6.1 = {
holder=16001 #Mara(C)
}
8099.1.1 = {
holder=15001 #Qyle
}
8105.1.1 = {
holder=14001 #Qoren (C)
}
8132.1.1 = {
holder=175001 #Aliandra (C)
}
8140.1.1={
holder=39001
}
8147.1.1 = {
holder=13001 #Marence
}

#8157.8.7 = {
	#liege="k_dorne" # Garvys Tyrell. Overlord placed in charge by Daeron the young dragon.
#}
#8160.1.4 = {
	#liege="e_dorne" # After Garvys Tyrell gets killed by snakes in a bed.
#}
8168.1.1 = {
holder=11001 #Maron (C)
}

8187.6.1= {liege="k_dorne"} # Came into Seven kingdoms.

8220.1.1={
holder=99002
}
8230.1.1={
	holder=24001
}
8251.1.1={
	holder=2001
}
8280.1.1={
	holder=1
}
	
