600.1.1={
	liege="k_yin"
}
6380.1.1 = { 
	holder=10065961 #Lo Tho, twenty-second of the scarlet emperors
}
6429.1.1 = { holder=0 }

6506.1.1 = { 
	holder=10365961 #Lo Doq, thirty-fourth scarlet emperor
}
6520.1.1 = { holder=0 }
6670.1.1 = { 
	holder=10065963 #Lo Han, forty-second scarlet emperor
}
6698.1.1 = { 
	holder=10165963 #Lo HBu, forty-third and last scarlet emperor
}
6700.1.1 = { holder=0 }

#House Sabbag
7862.1.1 = { holder=34469195 } # Ping (nc)
7877.1.1 = { holder=34369195 } # Fai (nc)
7903.1.1 = { holder=34269195 } # Yuen (nc)
7941.1.1 = { holder=34169195 } # Shinu (nc)
7966.1.1 = { holder=34069195 } # Rho (nc)

7995.1.1 = { holder=10069195 } # Ubayd (nc)
8036.1.1 = { holder=10169195 } # Ubayd (nc)
8048.1.1 = { holder=10369195 } # Jibril (nc)
8086.1.1 = { holder=10669195 } # Shamir (nc)
8104.1.1 = { holder=11169195 } # Nizam (nc)
8111.1.1 = { holder=11269195 } # Yahya (nc)
8143.1.1 = { holder=11869195 } # Yusuf (nc)
8177.1.1 = { holder=12169195 } # Isa (nc)
8214.1.1 = { holder=12469195 } # Abdul (nc)
8220.1.1 = { holder=12669195 } # Nizam (nc)
8254.1.1 = { holder=13169195 } # Yusuf (nc)
8279.1.1 = { holder=13469195 } # Is'mail (nc)



