#House Fowler
2940.1.1={
	liege="k_princespassTK"
	law = succ_primogeniture
	law = true_cognatic_succession
	
	holder = 150014 #Ferris
}

2973.1.1={ holder = 0 }

7252.1.1 = { holder = 152014 } #Garrison
7305.1.1 = { 
	liege="e_dorne" # conquered by the Martell's.
	holder = 0 
}
7861.1.1 = { holder = 158014 } # Gerris (nc)
7883.1.1 = { holder = 156014 } # Andrey (nc)
7917.1.1 = { holder = 154014 } # Vorian (nc)
7960.1.1 = { holder = 155014 } # Ferris (nc)
7988.1.1 = { 
	holder=60014 # Aron (nc)
	liege="e_dorne"
} 
8012.1.1 = { holder=60114 } # Cassana (nc)
8032.1.1 = { holder=60414 } # Franklyn (nc)
8080.1.1 = { holder=60714 } # Marya (nc)
8102.1.1 = { holder=60914 } # Gerold (nc)
8105.1.1 = { holder=61114 } # Trystane (nc)
8122.1.1 = { holder=61414 } # Gerald (nc)
8157.6.12 = { holder=61314 } # Marcia (nc)
8172.1.1 = { holder=61714 } # Lanei (nc)
8187.6.1 = {liege="k_dorne"}
8195.1.1 = { holder=62114 } # Ynessa (nc)
8237.1.1 = { holder=62214 } # Garin (nc)
8254.1.1 = { holder=63014 } # Gerold (nc)
8261.1.1 = { holder=14 } # Franklyn (C)