600.1.1={
	liege="k_pentos"
}
7880.1.1 = { holder=346300013 } # Qysar Obizos (nc)
7886.1.1 = { holder=34669123 } # Variphos Myrenolys (nc)
7902.1.1 = { holder=345174360 } # Relyrio Estatis (nc)
7920.1.1 = { holder=346300012 } # Esselo Narratys (nc)
7937.1.1 = { holder=346174360 } # Mareo Estatis (nc)
7951.1.1 = { holder=34769123 } # Bysiros Myrenolys (nc)
7962.1.1 = { holder=346300015 } # Qollo Torgodorio (nc)
7975.1.1 = { holder=346300014 } # Norio Virginion (nc)
7988.1.1 = { holder=34669125 } # Padaros Lysandys (nc)

7995.1.1 = { holder=103174360 } # Mero Estatis (nc)
8043.1.1 = { holder=105174366 } # Jaqen Myrakis (nc)
8058.7.1 = { holder=111300012 } # Denyo Narratys (nc)
8078.1.1 = { holder=171174360 } # Byan Estatis (nc)
8122.1.1 = { holder=119174356 } # Tormo D'han (nc)
8139.1.1 = { holder=124174360 } # Ferrego Estatis (nc)
8155.1.1 = { holder=126300526 } # Ordello Theltis (nc)

#5 Princes in 1 year
8186.1.1 = { holder=129300526 } # Denyo Theltis (nc)
8195.4.1 = { holder=101669123 } # Daario Myrenolys (nc)
8195.6.1 = { holder=105069157 } # Collio Denorys (nc)
8195.10.1 = { holder=132300526 } # Mero Theltis (nc)

8196.1.1 = { holder=131300012 } # Nevio Narratys (C)

8208.1.1 = { holder=127174356 } # Qarro D'han (nc)
8213.1.1 = { holder=137300526 } # Ferrego Theltis (nc)
8249.1.1 = { holder=181300526 } # Luco Theltis (nc)
8277.1.1 = { holder=132174356 } # Tregar D'han (nc)
8290.1.1 = { holder=149300012 } # Ternesio Narratys (nc)