4025.1.1 = {
	holder =  10056822 #Huzhor Amai (C)
}
4068.1.1 = {
	holder = 0
}
5214.1.1={
	liege="k_sarnor"
	law = succ_primogeniture
}
#House Alexi
7885.1.1 = { holder=110056800 } # Onkar (nc)
7921.1.1 = { holder=10156800 } # Bhagesh (nc)
7953.1.1 = { holder=10656800 } # Harith (nc)
7965.1.1 = {
	holder = 10056800 #Mazor Alexi (C)
}

#Dothraki
7975.1.1 = {
	holder=100600216 # Marro (nc)
	historical_nomad = yes
	liege=k_dothraki
}
7995.1.1 = {
	liege=0
}
8007.1.1 = { holder=101600216 } # Fono (nc)
8026.1.1 = { holder=103600216 } # Fogo (nc)
8051.1.1 = { holder=105600216 } # Zekko (nc)
8072.1.1 = { holder=106600216 } # Tihho (nc)
8112.1.1 = { holder=110600216 } # Qano (nc)
8121.1.1 = { holder=114600216 } # Quaro (nc)
8177.1.1 = { holder=115600216 } # Mago (nc)
8186.1.1 = { holder=118600216 } # Tokko (nc)
8203.1.1 = { holder=120600216 } # Tokko (nc)
8252.1.1 = { holder=123600216 } # Tihho (nc)
8260.1.1 = { holder=124600216 } # Temmo (nc)
8289.1.1 = { holder=125600216 } # Ogo (c)
8298.9.10 = { holder=128600216 } # Aggo (nc)