#House Tarth
3030.1.1 = {
	holder = 150054 #Edwyn Evenstar
	liege = k_tarthTK
}
3055.1.1 = {
	liege="e_stormlands" #married into Durrandons
}
3072.1.1 = {holder=0}
7839.1.1 = { holder=34054 } # Selwyn (nc)
7853.1.1 = { holder=157054 } # Terrence (nc)
7869.1.1 = { holder=156054 } # Loros (nc)
7892.1.1 = { holder=155054 } # Ellard (nc)
7922.1.1 = { holder=154054 } # Matthos (nc)

7944.1.1 = { holder=153054 } # Selwyn (nc)
7976.1.1 = { holder=60000054 } # Daven Tarth (nc)
7988.1.1 = { holder=300054 } # Selwyn Tarth (nc)
7998.2.27={
	liege = k_stormlands
}
8039.1.1 = { holder=301054 } # Willem Tarth (nc)
8072.1.1 = { holder=310054 } # Selwyn Tarth (nc)
8114.1.1 = { holder=315054 } # Willem Tarth (nc)
8146.1.1 = { holder=316054 } # Renly Tarth (nc)
8174.1.1 = { holder=322054 } # Endrew Tarth (nc)
8210.1.1 = { holder=200054 } # Quentyn Tarth (C)
8237.1.1 = { holder=326054 } # Terrence Tarth (nc)
8255.1.1 = { holder=331054 } # Willem Tarth (nc)
8279.1.1 = { holder=201054 } # Selwyn Tarth (C)
8299.7.2 = { liege=0 }