1.1.1={
	liege="e_north"
	law = succ_primogeniture
}
6480.1.1={
	holder = 8480049 
}
6492.1.1={
	holder = 8480070 
}
6503.1.1={
	holder = 8480071 
}
6531.1.1={
	holder = 0 
}
6968.1.1={
	holder = 8480073 
}
7003.1.1={
	holder=0 
} 
7385.1.1 = { holder=640080 } # Martyn (nc) # First Manderly in the North
7415.1.1 = { holder=0 }
7840.1.1 = { holder=660080 } # Wyman (nc)
7860.1.1 = { holder=670080 } # Borian (nc)
7897.1.1 = { holder=680080 } # Torrhen (nc)
7928.1.1 = { holder=60080 } # Emmett (nc)
7937.1.1 = { holder=60180 } # Wylan (nc)
7961.1.1 = { holder=60280 } # Elman (nc)

7965.1.1={
	holder = 20080
}
7999.1.1={
	liege="k_north"
}
8004.1.1={
	holder = 19080
}
8045.1.1={
	holder = 17080
}
8088.1.1={
	holder = 16080
}
8108.1.1={
	holder = 15080 # Heward
}
8116.1.1={
	holder = 13080 # Desmond
}
8132.2.2={
	holder=1017080 # Medrick
}

8132.2.6={
	holder = 1015080 # Torrhen (C)
}
8136.2.1 = { liege="e_iron_throne" }	#Aegon III's Regency
8136.12.28 = { liege="k_north" } 

8139.2.8={
	holder = 12080 # Borion
}
8172.1.1={
	holder = 11080 # Waymar
}
8222.1.1={
	holder = 10080 # Wayn
}
8232.1.1={
	holder = 1034080
}
8251.1.1={
	holder = 1004080
}
8260.1.1={
	holder = 80 # The Boss Lord Lamprey
}
