#House Mahabhar
600.1.1={
	law = succ_primogeniture
	law = agnatic_succession
}
7860.1.1 = { holder=34455936 } # Jarrah (nc)
7880.1.1 = { holder=34355936 } # Hassaq (nc)
7903.1.1 = { holder=34255936 } # Bashar (nc)
7935.1.1 = { holder=34155936 } # Galim (nc)
7967.1.1 = { holder=34055936 } # Malak (nc)

7995.1.1 = { holder=1055936 } # Abdullah (nc)
8019.1.1 = { holder=1355936 } # Mubarak (nc)
8053.1.1 = { holder=1655936 } # Sadiq (nc)
8056.1.1 = { holder=1955936 } # Nizam (nc)
8078.1.1 = { holder=2055936 } # Jabir (nc)
8105.1.1 = { holder=2455936 } # Mubarak (nc)
8129.1.1 = { holder=2855936 } # Hafiz (nc)
8161.1.1 = { holder=2955936 } # Isa (nc)
8170.1.1 = { holder=3055936 } # Azam (nc)
8203.1.1 = { holder=3455936 } # Aarif (nc)
8213.1.1 = { holder=4055936 } # Alim (nc)
8270.1.1 = { holder=4255936 } # Hafiz (nc)
8290.1.1 = { holder=5055936 } # Aghlab (nc)


