#k_summer_islands
2000.1.1 = {
	law = succ_seniority
	law = cognatic_succession
	law = centralization_0
	law = slavery_0
}

# #House Qo Unifies the Islands
2416.1.1 = {
	holder=150304005  # Xanda
} 
2458.1.1 = { holder=151304005 } # Chatana
2490.1.1 = { holder=0 }
# #House Qo Unifies the Islands
# 8158.1.1 = { holder=114304005 } # Xanda (C)
# 8178.1.1 = { holder=118304005 } # Isingodo (nc)
# 8203.1.1 = { holder=121304005 } # Thabo (nc)
# 8221.1.1 = { holder=122304005 } # Xhelimo (nc)
# 8235.1.1 = { holder=124304005 } # Jalahuru (nc)

# #House Xho usurps the Islands
# 8258.1.1 = { holder=122304000 } # Udo (nc)
# 8287.1.1 = { holder=126304000 } # Qubhar (nc)

# 8289.6.1 = { holder=127304005 } #Usurped by House Ko